Ae2OKaba-26297477

P1v0LTHm-03657999

0FpmDSoN-28240707

VN8WdFnt-75019604

1tHlaL7Z-18701887

CjRTlzGe-32844743
pTf72IdG-40393939

peoZh3dj-99733280

MzL1xkNT-55978636

AFLfXwm2-96792406

NiuZGUpH-40756066

MN0kXMCZ-69545560

VxvZmwUa-50681014
0ET6TMCB-83886166
FtYByNdg-63902946
xlKpqKjS-50843054

tgtOYJrt-88178522

EnLTVmLu-58683825

n3OHMw_F-59376205
fbWC8HO_-89189408

x1qWeYrQ-55176722

Jbt_3jOW-24207482

LYQtzlGR-45135960

Gjci9Iun-11801848

HlzAZZ3D-91256350
9QlF8cEZ-35473707

DLCbqqjz-44321635

6_QKt51l-91178346

BkzLBaii-80822722
aPOuOnQ7-01709000
LgSGF5yq-61806215
er_U6CjM-55095829
PbH_7mPU-57465171

V9HJWQoI-35398551
Cre4BWYa-30030650

meCD2toQ-63812063

MuK2UdTq-99538892
bk5syhiy-05739387

RIDkRyyu-88713990
09iek_hw-89956248

6Amu5HxE-60721835

Okhvsccr-16765137

vsoTdpCI-21245252

1LypjaV_-95149333

AT88TfGJ-39712474

8BiaH8C2-02874270

rA8RVCMR-90773781

DFHD1bg6-63580585

zoRdgoJE-43237550

F2slMZ2W-77549867

w8Q9sgtL-40782146

Za4TeObw-73358050

5hMEqRP8-75468354

hPsrCViF-13443605

hXc6fqEf-14292424

vvpA0AcY-82055140

TfChhumA-48974901

1D7ZdQ31-78350545

DkWApIef-60635333

6ixAcGNO-46253674

JCFbtanJ-63077385

msXYuqPM-34040676
8oRG1Fi6-14631119
IqdNg229-19847320
w5A8csCE-83560325

67jaNNKq-70403222

BLBVo5IU-06714056

Ey8uYV0c-45614657

D5lSMTzy-75048840

MhuSKfIo-00894270

i3WLoZb6-36562808

on6ICKdL-21769725

J8HdniEM-71918508
7DP3GaL1-96033397

v0edguJo-06600550
I4rNvjI5-77483961
S1sTEI2U-65603412

4IVU0BK0-50237180
xX7fLhxZ-58280419

8QX5LPXo-34822806

gwcLCt_m-38512989

6uCCsUAF-11767350

sPRpASJN-98040576

wxng1S3D-38939241
UZHPFN2B-59331207

Xpzo1O3n-99992103

Mq24tDyY-09614168

nwGSwEHj-98278067

Q9nswN1I-57284507

ifzRiIF0-43794686

6j0v85ww-56448547
UQjRbrUZ-60179976
0LR2MEUO-80467020
cSMtt_cA-01962861

ZxYHbSW9-66565565
dvzs9n73-95924619
qL9aeDTB-54225990

HsYnjuU5-73519190

aArRkeRj-64873333

qpo0B8eJ-16273228

5RM9QQaJ-96938532

dsQnHz0s-09878749
yjfSLUjt-51257897
5t0fpJoS-44032657

HiP7jlMl-78642990

E2GOdKTM-29797893

01zPmfNT-68641854
L3P46bGZ-91713088

aFx5Gmlf-95833219

Vs_loVgQ-25056408
C5fIrEID-33347088

u2qo_Bgo-87625205

GlIC8t3Y-77890978

JzWwUo1I-84214699

S_DvcKYP-27525021
JnKvkKMH-58024420

E7D0fCH0-08618264

rd2J2BKV-42147958

XpoyAVEf-90949705

V4aVgbjM-62930317

YIgMjQDz-51015999
Fr1FQ80B-95244969

MtcAvZc6-72566227

YbN0GsJx-10453076

Jm5HDZpY-38516752
jPLTwLnP-50515349

OaaaQzmB-81894674
SJPgh30d-43890083
v1uNDY_N-21217126
