100

18
Marian Pimentel
Marian Aragon
Angeline Navarro
Kelli Womack
Donte Varelo
Roy Pimentel
Kelli Pimentel
Ester McDough
Demarcus Glynn
London Aragon
Donte Glynn
Marian Navarro
Rory McDough
Kelli Lee
Eleanor Lee
Shyann Ruby
Nadia Glynn
Dario Arevalo
2 4 11 10 16 1 8 5 14 15 7 9 17 3 12 6 18 13
13 10 8 17 3 15 7 12 18 14 2 6 4 16 1 9 5 11
1 11 14 16 10 8 9 5 3 18 15 6 4 12 13 17 2 7
8 14 3 2 11 16 12 9 15 17 1 13 7 4 5 6 10 18
6 10 14 2 13 3 5 7 4 17 9 11 15 18 16 12 8 1
10 7 8 18 11 3 9 14 2 5 16 13 6 15 1 4 17 12
5 2 17 18 3 1 16 6 13 12 9 10 14 11 8 7 4 15
17 4 18 13 10 7 9 14 12 11 8 2 1 3 15 6 16 5
6 5 8 12 3 4 13 7 1 9 10 14 17 11 18 16 15 2
7 12 10 9 5 11 8 4 17 6 18 15 16 1 3 14 2 13
18 8 3 16 15 4 17 1 2 6 11 9 12 14 7 10 5 13
13 6 14 2 15 5 3 7 8 9 18 12 4 10 1 17 11 16
15 14 18 9 1 2 6 17 4 10 13 7 16 12 5 8 11 3
14 12 13 6 18 3 7 10 8 4 16 5 9 15 2 1 17 11
14 18 5 9 3 4 2 15 16 17 7 6 12 10 8 13 11 1
11 10 9 16 12 13 1 5 6 4 14 15 8 18 17 2 3 7
18 6 3 2 13 4 1 5 15 16 14 17 9 8 11 12 10 7
9 5 6 1 4 7 10 2 17 13 3 14 15 18 16 8 11 12
12 15 7 17 14 11 2 13 4 3 1 10 5 8 6 16 18 9
12 17 11 5 18 3 14 15 4 9 6 13 16 8 2 1 7 10
4 3 8 9 13 12 11 5 15 17 6 16 14 7 1 18 10 2
12 10 16 9 6 14 17 8 11 5 15 7 1 2 4 3 13 18
18 9 14 2 8 1 16 13 15 12 3 6 5 10 17 11 4 7
10 5 8 7 1 2 12 9 13 4 11 18 15 3 16 14 6 17
12 1 2 13 17 3 16 14 4 5 10 15 18 6 11 9 7 8
3 14 13 2 10 9 1 18 12 15 5 16 4 11 6 8 17 7
3 8 16 4 17 13 10 7 1 9 12 5 2 14 18 11 15 6
18 14 11 15 1 8 3 17 12 16 5 4 9 7 6 10 2 13
10 4 12 8 7 1 13 16 2 3 17 15 5 9 11 6 14 18
17 12 18 6 10 7 1 9 13 8 15 2 14 3 4 11 5 16
13 9 6 7 12 11 10 16 18 3 2 1 14 17 8 4 5 15
14 6 17 16 11 2 3 18 5 4 10 1 13 15 8 9 12 7
18 3 1 15 6 8 12 10 17 7 14 9 16 11 2 5 13 4
9 1 6 4 15 10 16 7 12 14 8 5 11 3 2 18 13 17
6 13 1 15 4 8 16 7 3 10 14 9 2 11 18 12 5 17
5 11 1 8 15 7 10 17 2 16 18 12 9 4 3 6 13 14

17
Rory Navarro
Brynn Pimentel
Ania Ruby
Aileen Aragon
Trevor Yu
Nina Pettit
Cornelius Greiner
Ester Dockery
Eleanor Yu
Nina Womack
Donte Greiner
Marian Yu
Nina Pimentel
Carson Varelo
Eleanor Sterling
Marian Glynn
Roy Lee
6 11 2 4 8 14 7 5 17 9 13 15 16 12 1 3 10
17 11 10 14 4 7 1 9 6 13 15 12 2 8 16 3 5
8 11 16 4 12 17 15 10 3 2 6 14 13 5 9 7 1
14 2 9 12 15 6 17 16 3 7 1 8 10 5 13 4 11
2 17 1 10 5 4 13 6 9 8 15 7 14 16 12 3 11
12 16 7 10 5 2 6 8 15 9 4 3 1 11 17 13 14
11 13 4 14 5 12 16 10 9 1 2 3 8 17 7 15 6
5 16 15 17 3 2 11 13 1 12 9 6 10 7 14 4 8
1 8 15 5 13 9 6 14 7 17 11 2 10 12 3 4 16
6 4 5 9 13 1 2 15 14 17 8 7 12 11 10 16 3
12 6 14 16 4 1 9 8 10 5 7 3 17 2 13 15 11
4 6 8 5 10 2 12 17 7 9 13 14 11 15 1 3 16
6 4 10 7 9 3 2 13 14 5 17 15 16 8 1 12 11
17 13 5 9 3 15 16 14 8 6 12 2 11 1 4 10 7
4 1 5 17 2 10 15 7 12 13 16 8 3 14 9 11 6
14 2 13 15 10 11 16 3 7 6 4 12 1 8 9 17 5
9 4 14 12 2 1 10 15 17 16 13 6 8 7 3 5 11
13 7 17 11 9 10 14 8 3 1 6 15 5 16 12 2 4

7
Marian Navarro
Shyann Arevalo
London Vaught
Ania Arevalo
Demarcus Aragon
Nyla Pimentel
London Arevalo
7 3 1 2 4 6 5
2 4 7 5 3 1 6
5 4 1 6 2 7 3
4 2 3 6 7 1 5
4 7 3 2 5 1 6
4 3 2 1 6 5 7
5 7 1 6 2 4 3
3 1 5 4 7 2 6
2 6 7 4 3 5 1
7 1 6 5 3 4 2
3 4 6 5 1 7 2
7 6 1 2 4 3 5
3 5 6 4 2 7 1
4 3 1 2 6 5 7
2 1 3 5 4 7 6
6 2 4 3 5 1 7
1 6 7 3 2 4 5
6 4 5 2 3 7 1
5 1 6 4 3 2 7
6 2 1 5 4 3 7
1 4 7 2 6 3 5
6 3 4 2 7 5 1
7 1 5 3 4 2 6
1 2 5 3 4 7 6
1 2 4 3 7 6 5
3 2 1 5 4 7 6
7 6 5 1 4 2 3
4 7 1 5 2 3 6
4 2 7 6 1 3 5
4 6 7 2 3 1 5
1 3 4 7 6 2 5
6 2 7 3 1 4 5
7 6 4 5 2 1 3
5 3 2 4 6 7 1
4 7 5 2 3 6 1
4 5 7 1 3 6 2
6 5 7 2 1 4 3
6 2 4 7 3 5 1
4 5 6 2 1 3 7
2 5 6 1 7 4 3
4 2 1 3 7 5 6
1 2 3 6 4 5 7
4 6 1 5 7 3 2
1 7 6 3 5 2 4
1 6 4 5 3 7 2
6 5 3 4 1 2 7
3 1 7 2 5 4 6
3 7 2 4 6 5 1
3 2 4 1 6 5 7
7 3 4 6 1 5 2

9
Audra Dockery
Audra Van
Marian Pimentel
Cornelius Fontaine
Carson Venegas
Cornelius Dockery
Donte McDough
London Sterling
Carson Van
9 2 5 8 1 6 4 3 7
7 2 6 9 3 1 5 4 8
3 4 5 7 2 1 8 9 6
7 9 2 1 6 3 8 5 4
2 8 7 6 4 5 1 9 3
2 6 4 7 5 3 9 1 8
2 7 3 9 4 5 6 8 1
6 5 3 9 8 7 4 1 2
3 4 1 6 9 2 7 8 5
2 6 5 4 8 9 3 1 7
7 2 6 9 3 8 5 4 1
4 9 3 6 7 8 1 5 2
5 6 2 9 8 4 1 7 3
8 5 6 9 7 2 4 1 3
9 6 5 1 3 7 4 2 8
7 5 2 9 1 4 6 8 3
2 7 6 4 5 9 3 1 8
2 5 8 3 4 6 1 9 7
6 1 2 7 9 4 5 8 3
5 2 9 4 1 6 8 7 3
6 5 2 1 7 3 8 4 9
8 6 3 5 4 2 7 9 1
2 9 8 5 1 4 7 3 6
8 5 7 9 2 4 3 6 1
3 7 6 5 8 9 4 1 2
5 9 4 1 8 3 6 2 7
6 5 7 9 1 2 8 4 3
8 2 6 4 3 7 1 5 9
3 5 1 9 6 2 8 7 4
4 3 6 2 8 9 7 1 5
4 7 1 6 3 2 9 8 5
3 7 2 1 5 8 9 4 6
9 7 6 1 8 4 3 2 5
2 1 4 7 9 5 8 6 3
4 7 5 9 2 6 8 3 1
4 1 8 2 5 6 9 3 7
3 5 9 7 1 6 4 8 2
1 2 5 7 6 4 3 9 8
3 1 2 9 7 8 6 5 4
8 6 1 4 2 5 7 3 9

19
Nyla Aragon
Kelli Dockery
Aileen Aragon
London Van
Kelli Yu
Demarcus Barlow
Rory Navarro
Ester Pettit
Nadia Fontaine
Shyann Fortune
Audra Van
Demarcus Fontaine
Nyla Venegas
Kelli Yu
Aileen Glynn
Trevor Greiner
Eleanor Fontaine
Nina Varelo
Cornelius Yu
7 16 6 3 8 10 2 13 9 1 17 18 12 15 19 5 14 4 11
7 1 6 8 18 15 11 5 12 17 13 2 9 3 16 10 4 19 14
11 6 1 2 19 10 3 17 8 4 12 9 16 5 18 15 13 7 14
11 13 10 7 12 8 15 19 14 2 9 6 18 1 4 3 5 17 16
7 6 3 12 4 1 11 17 13 5 14 9 16 18 15 2 8 19 10
6 19 8 17 13 5 2 16 18 9 12 14 4 15 3 10 7 1 11
9 17 7 10 19 8 2 6 15 4 18 11 5 1 16 3 14 12 13
2 11 14 10 1 15 9 7 17 5 13 8 19 12 4 16 3 6 18
6 5 3 15 17 9 11 1 18 4 13 14 2 8 10 19 12 7 16
7 3 16 2 15 17 19 18 9 14 4 8 12 11 5 1 13 6 10
18 2 15 10 1 5 17 9 11 4 7 8 13 3 12 14 6 19 16
12 4 19 17 10 5 3 9 6 16 2 14 13 18 8 11 7 15 1
11 2 12 6 7 14 17 1 3 8 5 15 4 19 10 16 13 9 18
7 8 1 10 3 18 2 6 14 9 11 13 15 17 4 19 12 16 5
2 19 7 18 1 8 10 12 4 5 6 3 14 16 13 9 15 17 11
16 12 4 6 3 8 15 18 1 17 14 13 10 11 9 7 2 5 19

15
Rashad Navarro
Nyla Glynn
Nyla Vaught
Carson Arevalo
Demarcus Varelo
Aileen Barlow
Donte Womack
Nina Arevalo
Audra Fontaine
Brynn Womack
Eleanor Vaught
Ester Vaught
Nyla McDough
Demarcus Barlow
Rashad Fontaine
5 6 10 9 3 8 11 15 12 7 13 4 14 2 1
4 1 5 10 15 6 8 12 2 3 9 11 13 14 7
13 3 12 1 10 9 7 5 15 8 6 4 11 14 2
10 2 1 11 5 9 4 6 12 13 8 14 15 3 7
15 3 5 9 11 12 13 6 1 14 8 4 7 10 2
10 5 9 15 14 12 6 7 13 8 1 2 11 3 4
4 9 11 10 14 8 1 15 6 7 13 5 2 3 12
15 14 7 8 5 10 11 3 12 2 1 13 6 9 4
6 3 14 5 9 15 11 7 12 8 4 2 13 1 10
13 2 7 12 8 10 11 6 1 14 9 4 15 5 3
14 2 9 7 13 4 6 15 10 3 8 1 11 5 12
3 11 10 8 14 15 2 13 12 9 6 7 1 4 5
1 11 2 3 6 10 5 4 8 7 15 14 12 13 9
13 6 1 2 7 10 11 5 3 8 15 12 14 4 9
15 13 1 9 6 11 7 8 3 5 12 2 10 4 14
11 10 4 13 6 9 14 3 7 8 2 12 5 15 1
10 6 15 8 12 11 9 13 14 7 2 1 5 4 3
7 12 11 6 9 4 3 14 8 5 15 13 2 1 10
4 1 15 3 11 5 6 12 7 2 13 14 10 8 9

10
Ania Aragon
Kelli Glynn
Shyann Varelo
Rory Venegas
Carson Greiner
Martha Arevalo
Donte Varelo
Carson Vaught
Cornelius Vaught
Shyann Dockery
1 3 5 6 2 9 8 7 10 4
7 9 6 5 3 1 8 4 10 2
2 1 5 3 9 8 4 6 10 7
2 1 3 6 9 5 10 8 7 4
7 5 9 3 10 6 2 8 4 1
6 3 4 1 7 5 9 2 8 10
6 10 5 4 3 7 8 2 9 1
3 4 7 6 2 9 10 5 8 1
2 8 1 5 6 9 10 7 4 3
9 7 6 3 1 2 4 8 10 5
4 5 8 1 9 7 3 2 10 6
4 8 9 3 5 2 7 6 10 1
10 6 3 9 7 8 5 1 2 4
9 2 10 1 7 5 4 6 3 8
5 8 2 7 4 3 1 10 6 9
8 6 2 1 5 9 7 10 4 3

11
Trevor Womack
Kelli Ruby
Eleanor Arevalo
Kelli Womack
Roy Womack
London Navarro
Brynn McDough
Aileen Dockery
Aileen Barlow
Trevor Dockery
Shyann McDough
4 9 5 11 7 3 10 2 6 1 8
11 9 4 3 8 5 2 1 7 10 6
6 5 9 7 10 8 1 2 4 3 11
4 1 6 2 8 11 5 9 7 3 10
2 6 4 5 7 11 10 8 3 1 9
5 1 8 6 2 3 9 10 4 7 11
9 5 7 6 1 4 2 3 10 11 8
10 11 6 8 3 5 1 9 7 4 2
4 6 5 9 8 1 2 11 7 3 10
8 5 6 11 2 4 7 1 10 9 3
11 4 1 8 3 9 6 10 5 7 2
2 6 9 10 11 5 8 1 7 3 4
11 5 2 10 3 4 1 8 9 6 7
6 2 3 11 9 8 1 5 4 7 10
11 8 1 7 5 10 9 4 2 3 6
5 1 6 10 7 4 9 11 3 2 8
8 4 6 10 2 9 1 3 7 11 5
1 7 4 10 5 6 3 2 8 9 11
10 9 11 3 6 1 7 5 4 2 8
11 10 9 7 8 3 5 6 4 2 1
7 3 8 6 5 10 1 11 2 9 4
8 3 2 9 7 1 4 11 5 10 6
3 1 5 2 9 8 10 6 7 4 11
1 2 7 8 10 5 9 3 4 6 11
5 8 2 1 3 9 10 6 11 4 7
8 2 10 5 9 1 7 11 6 3 4
9 1 5 2 8 6 11 4 7 3 10
10 6 11 7 1 5 3 8 9 4 2
3 11 7 1 6 10 8 4 5 9 2
10 8 3 7 2 6 11 5 9 4 1
5 9 8 7 6 3 4 10 1 11 2
3 6 9 2 11 7 5 10 1 8 4
2 1 4 8 7 11 9 10 3 6 5
8 2 4 9 11 6 1 7 3 5 10
7 6 1 3 10 9 4 11 2 8 5
9 11 5 4 2 1 3 6 10 7 8
5 6 10 3 7 1 4 8 11 9 2
4 8 1 2 5 11 9 6 3 7 10
8 6 9 4 2 10 1 5 11 7 3

13
Nyla Yu
Cornelius Arevalo
Carson Navarro
Martha Arevalo
Kelli Vaught
Angeline Fortune
Trevor Fortune
Nina McDough
Kelli Womack
Carson Navarro
Audra McDough
Eleanor Navarro
Rashad Dockery
6 8 9 12 11 4 5 1 3 13 2 7 10
6 12 11 7 4 2 3 10 5 9 13 1 8
7 11 12 6 10 3 8 4 9 5 13 1 2
13 11 6 12 2 5 10 9 7 8 1 3 4
2 13 12 11 4 7 3 5 1 6 9 8 10
1 5 4 12 10 9 8 13 3 7 2 6 11
11 10 7 2 3 8 12 5 13 4 6 9 1
9 1 4 12 11 7 6 3 13 2 10 5 8
12 9 3 8 2 10 1 5 4 13 7 11 6
7 2 1 5 3 11 10 6 12 8 4 9 13
4 1 2 7 8 10 11 12 5 6 9 3 13
2 8 13 3 6 5 1 7 11 10 4 12 9
4 12 11 9 1 13 6 8 2 10 5 3 7
10 13 6 7 12 5 9 8 4 3 11 1 2
5 2 8 1 4 7 6 9 3 11 13 12 10
3 12 8 4 10 7 1 6 2 13 5 11 9
3 7 11 1 2 13 12 4 8 6 9 5 10
9 1 13 10 8 11 2 6 3 5 7 4 12
10 6 12 11 13 7 8 9 5 4 1 3 2
9 8 10 5 1 3 12 13 6 2 4 7 11
1 11 13 12 8 4 9 10 6 2 3 7 5
5 13 10 4 3 12 2 1 8 7 11 9 6
6 12 9 7 1 5 10 4 13 8 3 2 11
12 2 9 5 8 4 6 1 7 3 11 10 13

19
Carson Varelo
Dario Pettit
Aileen Barlow
Ania Vaught
Ester McDough
Audra Dockery
Nina Pettit
Brynn Greiner
Ester Lee
Audra Fortune
Carson Yu
Demarcus Vaught
Cornelius Lee
Dario Aragon
Martha Dockery
Ania Lee
Brynn Fontaine
Angeline Sterling
Nadia Varelo
1 12 7 17 19 14 4 9 11 13 2 16 15 5 10 8 3 18 6
11 13 18 19 10 7 5 4 15 17 12 1 9 14 8 2 16 3 6
1 19 11 2 13 14 10 3 9 4 7 8 17 12 16 5 6 18 15
16 2 18 15 17 13 3 7 4 10 14 6 8 5 11 19 12 1 9
18 3 2 11 19 8 1 13 7 15 5 9 10 14 17 6 4 16 12
19 6 16 18 1 12 7 4 15 13 9 10 17 8 2 14 11 5 3
16 7 4 9 1 3 6 8 2 10 17 14 5 19 12 15 13 11 18
6 11 2 13 14 8 5 17 12 3 1 18 7 16 15 19 10 4 9
2 7 10 18 15 13 12 3 9 1 5 16 8 4 19 17 6 11 14
15 3 9 7 14 4 12 11 19 17 5 6 13 1 10 8 16 2 18
17 16 8 19 4 10 2 18 11 13 15 14 3 7 9 1 6 12 5
19 14 10 18 7 2 8 1 13 16 17 4 12 11 5 9 6 3 15
7 11 6 13 17 16 9 1 18 4 2 19 10 3 14 8 15 5 12

15
Nyla Aragon
Brynn Pimentel
Nyla McDough
Marian Vaught
Kelli Pimentel
Nina Pettit
Martha Vaught
Nina Glynn
Trevor Barlow
Marian Vaught
Nina Sterling
Nyla Sterling
Cornelius Glynn
Demarcus Ruby
Cornelius Fortune
7 3 14 10 11 6 12 4 5 13 9 8 1 2 15
5 1 3 6 14 10 2 4 12 7 15 8 9 13 11
10 15 2 6 3 13 8 11 1 9 12 5 14 4 7
12 10 3 13 5 4 14 6 11 9 2 1 7 8 15
11 15 9 4 1 13 5 3 6 14 7 8 12 10 2
4 2 6 14 15 7 9 12 8 13 5 1 10 11 3

20
Demarcus Sterling
London Sterling
Aileen Dockery
Nina Vaught
Nyla Womack
Demarcus Sterling
Rory Fortune
Rashad Yu
Ania Greiner
Dario Sterling
Roy Lee
Martha Greiner
Donte Vaught
Dario Glynn
Brynn Fontaine
Roy Fontaine
Shyann Womack
London Fortune
London Fontaine
Nyla Pettit
19 15 10 4 3 8 6 17 1 7 5 16 12 13 18 2 9 11 20 14
10 6 1 4 17 15 16 12 19 20 11 13 9 5 2 8 18 7 3 14
5 3 18 8 1 20 11 13 4 17 7 10 2 6 15 19 9 12 16 14
11 10 15 19 9 20 12 14 8 17 7 3 4 13 18 2 5 6 1 16
13 11 2 7 19 4 14 12 10 1 17 9 15 20 8 3 18 16 5 6
18 6 10 3 14 12 17 4 5 11 1 8 15 19 16 2 20 9 13 7
13 10 7 4 1 16 17 5 18 15 9 3 8 12 11 20 19 2 6 14
3 7 11 2 18 9 1 8 16 5 14 13 12 17 20 10 6 4 15 19
3 20 12 14 6 4 1 7 8 15 9 2 10 11 17 18 16 13 19 5
3 15 14 17 1 4 20 11 2 5 7 6 8 13 10 18 12 9 16 19
17 20 13 19 4 5 1 6 15 7 14 8 18 10 9 11 3 12 2 16
4 10 17 6 7 16 3 9 18 12 2 1 20 8 14 19 15 11 5 13
16 6 19 14 1 5 15 3 4 20 10 13 8 9 11 2 17 12 7 18
15 10 3 9 12 19 17 6 11 13 5 2 7 4 20 14 18 8 1 16
18 17 4 6 13 19 2 16 12 1 15 11 3 8 20 5 10 7 9 14
18 14 7 17 6 15 11 10 12 9 3 20 2 1 5 8 4 19 13 16
2 16 8 12 17 11 13 20 14 10 4 19 5 7 9 15 3 18 6 1
3 18 7 15 4 16 17 5 9 12 1 2 6 11 14 19 20 13 10 8
13 16 12 9 11 2 4 10 6 20 15 14 19 3 8 18 17 5 1 7
5 14 10 20 13 2 17 8 18 7 12 4 16 19 9 3 6 15 1 11
6 10 3 7 4 5 20 2 1 11 15 12 9 17 13 19 18 8 14 16
9 12 8 7 20 19 6 13 11 15 16 17 3 2 10 5 1 18 14 4
9 20 5 18 8 19 7 14 17 2 10 15 11 6 4 1 12 13 3 16
7 15 5 13 14 12 4 19 2 1 16 18 11 3 9 17 20 10 8 6
19 16 17 18 13 2 3 4 1 12 6 20 11 15 8 10 9 7 5 14
19 17 6 14 1 12 10 4 16 18 3 5 7 20 11 9 13 2 8 15
2 18 14 7 20 10 19 1 11 3 5 17 6 8 4 12 9 13 16 15
16 14 15 18 7 9 13 12 11 2 8 17 10 3 5 4 1 6 19 20
9 7 13 1 15 10 16 20 2 18 19 3 8 11 4 5 17 12 6 14
19 4 16 5 17 7 6 12 10 13 9 11 2 1 20 14 15 8 3 18
8 16 3 15 12 14 4 13 20 19 5 1 2 10 18 7 17 11 6 9
4 14 5 15 12 18 16 2 20 7 1 9 19 11 10 8 17 3 6 13
3 16 13 18 12 2 1 5 11 8 20 15 17 10 4 6 19 9 14 7
11 19 6 20 13 1 12 8 10 4 2 18 9 14 17 15 7 3 16 5

15
Nina Venegas
Martha Vaught
London Glynn
Nyla Dockery
Nyla Aragon
Nina Venegas
Angeline Greiner
Aileen Arevalo
Rory Fontaine
Angeline Navarro
Rory Van
Donte Glynn
Audra Vaught
Dario Navarro
Roy Pimentel
11 3 2 9 14 13 12 15 8 1 6 5 4 7 10
4 1 14 10 12 9 5 15 8 13 2 3 7 6 11
5 3 14 1 13 7 2 15 6 12 10 11 4 8 9
4 7 12 9 13 1 3 2 6 11 10 15 14 5 8
10 6 1 2 4 7 8 15 9 12 5 14 13 11 3
5 13 1 12 2 6 15 7 10 4 8 14 3 9 11
13 8 2 3 7 11 10 6 12 15 4 1 5 14 9
3 5 9 15 12 7 8 10 2 4 11 1 14 13 6
11 12 4 6 1 14 5 15 7 2 9 10 8 3 13
7 2 5 14 3 8 15 6 11 1 12 13 10 9 4
9 14 11 15 6 12 3 7 10 1 2 8 13 5 4
11 10 6 14 13 5 7 12 1 15 3 4 8 9 2
14 7 15 8 3 6 5 11 4 9 13 2 10 12 1
2 4 13 11 7 5 15 9 12 1 3 8 10 14 6
11 9 2 5 15 8 10 7 13 1 6 3 4 12 14
6 13 11 8 9 1 2 4 14 7 5 10 12 3 15
4 15 13 14 1 6 12 3 9 5 7 8 2 11 10
2 8 9 15 4 10 3 6 12 1 7 11 5 13 14
11 13 1 3 14 15 6 8 5 4 12 10 7 2 9
10 3 14 5 1 9 15 13 11 7 8 6 12 2 4
7 8 12 3 13 2 1 10 9 4 11 5 14 6 15
7 3 15 4 9 10 2 12 5 13 14 1 11 8 6
5 1 6 3 4 9 8 2 15 11 13 12 10 14 7
9 8 15 2 13 7 3 14 4 6 5 12 11 1 10
15 2 5 4 7 12 8 11 3 6 10 13 9 1 14
11 4 15 13 14 10 3 6 7 9 2 1 12 8 5
10 8 9 12 1 5 7 6 13 4 3 15 2 14 11
10 6 9 15 13 3 4 1 12 7 2 11 5 14 8
7 5 11 4 2 9 1 3 12 6 14 15 10 13 8
11 14 15 2 8 9 13 6 10 4 7 5 3 12 1
1 12 3 9 4 5 7 11 2 13 10 14 15 6 8
9 10 3 11 1 12 8 2 4 5 13 7 14 6 15
13 10 5 6 2 11 12 15 14 4 9 1 3 7 8
14 1 13 5 15 11 3 12 9 6 4 7 2 10 8
4 1 13 8 2 6 15 3 5 14 12 7 9 11 10
3 13 2 8 15 4 1 12 10 14 7 9 11 5 6
7 6 3 12 15 14 10 2 13 9 1 11 5 8 4
13 15 8 5 10 6 4 9 3 2 14 11 1 7 12
5 1 4 7 9 14 13 11 6 12 10 3 15 2 8
12 14 3 1 13 2 11 10 4 8 5 7 15 9 6
1 13 9 8 14 11 7 5 2 6 4 15 10 12 3
10 2 13 11 9 1 5 15 4 12 8 14 7 6 3
4 5 10 8 3 13 11 1 7 6 14 2 15 9 12
15 12 8 7 9 11 3 6 4 10 1 2 5 14 13
8 12 4 13 10 1 11 7 2 3 6 14 9 5 15

17
London Womack
Rashad Varelo
Kelli Womack
Martha Ruby
Nina McDough
Ester Lee
Nina Aragon
Cornelius Vaught
Demarcus Fortune
Dario Sterling
Eleanor Aragon
Nina Van
Demarcus Lee
Donte Dockery
Cornelius Pettit
Martha Van
Rashad Glynn
1 4 3 15 12 5 7 6 11 13 14 16 9 10 17 8 2
12 2 7 11 17 10 4 13 5 15 14 1 9 16 8 3 6
11 15 13 4 5 3 10 17 12 14 7 1 6 2 9 8 16
1 3 6 5 7 11 14 8 4 13 16 9 10 17 12 15 2
2 15 16 5 6 8 1 13 9 14 7 4 11 17 12 3 10
10 6 16 5 17 8 2 9 4 3 13 12 1 7 14 11 15
16 2 1 6 13 9 3 5 4 12 14 17 15 11 10 8 7
1 14 16 11 17 13 9 3 2 5 7 6 8 4 15 12 10
7 9 14 11 6 5 16 13 2 10 3 8 17 15 4 12 1
12 15 11 6 1 7 13 9 16 4 17 5 3 14 2 8 10
9 5 11 6 7 8 10 2 4 14 16 15 1 12 13 3 17
11 8 12 17 9 6 15 5 1 16 3 7 4 10 14 13 2
5 10 3 17 15 4 13 11 6 1 2 12 7 16 14 9 8
5 14 8 10 4 7 11 9 12 16 1 17 13 3 15 6 2
6 10 7 2 14 1 4 8 13 9 15 16 12 5 11 17 3
13 14 4 8 17 9 7 11 12 10 5 1 3 6 16 15 2
14 12 7 2 6 9 11 3 10 8 5 15 13 1 4 16 17
12 10 2 7 3 15 16 13 11 6 5 14 4 8 1 17 9

17
Roy Dockery
Rashad Navarro
Audra Pettit
Rory Varelo
Rashad Fortune
Cornelius Womack
Ester Glynn
Demarcus Sterling
Roy Vaught
Carson Fortune
Demarcus Fortune
London Barlow
Donte Varelo
Ania Yu
Ania Glynn
Marian Pimentel
Audra Sterling
6 2 17 7 4 14 10 5 9 13 8 3 15 16 12 11 1
14 13 16 3 9 1 7 6 10 17 8 2 11 4 12 15 5
6 5 16 11 13 12 3 17 4 7 9 1 8 15 14 2 10
6 13 8 4 3 1 15 2 16 9 12 11 5 14 7 10 17
7 3 17 8 11 16 6 13 15 10 2 1 12 9 4 14 5
8 14 7 3 10 2 1 17 16 9 13 4 6 12 15 5 11
13 4 11 10 14 8 17 9 15 5 1 16 6 2 12 3 7
14 16 4 15 2 1 17 5 12 13 11 6 10 9 8 3 7
10 5 6 14 17 1 7 16 15 12 13 4 11 9 2 8 3
3 13 11 4 7 15 2 17 14 1 16 8 6 9 5 12 10
3 10 9 4 17 7 12 1 13 5 15 11 2 8 6 16 14
4 3 17 8 7 15 5 13 1 14 6 10 12 16 11 9 2
12 8 3 15 2 16 14 17 9 13 5 11 6 10 1 7 4
13 1 14 11 10 8 5 7 16 6 4 2 15 9 12 17 3
13 12 14 10 9 6 7 15 11 17 3 1 2 5 8 4 16
4 2 17 6 11 9 3 16 12 15 7 13 14 5 10 8 1
15 13 7 1 3 5 9 6 12 14 16 2 8 4 11 17 10
1 17 2 8 10 13 5 3 12 6 14 9 11 16 4 7 15
12 3 4 5 9 13 7 8 6 11 15 16 10 1 2 14 17
12 11 5 4 6 8 17 13 14 1 16 15 10 9 7 3 2
14 7 15 5 13 8 17 1 9 11 3 2 4 16 10 6 12
3 12 4 8 10 13 15 7 2 9 11 1 17 6 5 16 14
3 16 6 2 11 1 7 15 5 9 4 10 14 17 8 12 13
1 12 13 6 7 11 9 5 10 8 17 14 2 4 16 3 15
13 10 5 7 4 3 17 2 8 12 16 15 6 9 1 14 11
5 13 4 15 9 3 17 6 14 16 10 11 8 2 7 12 1
1 6 10 17 14 11 15 5 3 8 4 16 9 2 13 12 7
4 6 1 11 12 5 14 2 10 8 15 3 17 16 9 13 7
7 8 3 1 4 15 10 13 5 6 11 17 14 2 16 9 12
8 16 1 14 15 6 3 13 11 7 10 5 4 17 9 12 2
13 2 1 16 4 5 7 6 15 8 14 10 17 12 11 9 3
10 5 15 7 3 12 6 4 2 17 13 1 9 8 11 16 14
8 3 9 13 12 14 11 10 2 15 7 5 4 1 17 16 6
16 2 12 9 14 13 11 15 5 17 7 10 4 3 1 6 8
7 1 17 13 2 8 4 11 16 15 3 9 10 14 12 5 6
12 13 9 1 5 3 15 14 6 11 4 7 17 16 10 2 8
17 12 16 9 6 13 10 5 7 3 1 11 14 15 2 8 4
16 9 3 11 2 17 1 13 7 10 12 8 4 14 6 5 15
9 10 12 1 16 7 2 13 11 14 6 15 3 4 8 5 17
5 4 3 1 14 16 7 2 13 9 8 15 6 10 11 17 12
6 5 13 7 12 4 14 17 10 2 3 1 16 15 9 11 8
1 15 12 5 17 7 2 16 10 9 14 8 4 13 11 3 6
10 3 9 12 4 1 2 6 11 15 16 13 17 8 14 7 5
8 6 10 2 15 3 17 9 13 12 16 5 7 11 1 14 4
2 1 8 4 9 3 13 15 17 7 11 5 6 14 12 10 16
9 8 10 16 12 4 14 1 5 15 3 17 2 7 13 6 11
7 9 14 6 1 4 2 12 17 13 8 5 15 16 3 10 11
10 2 11 5 17 15 3 7 1 12 8 4 13 14 9 6 16

6
Rashad McDough
Cornelius Yu
Nina Greiner
London Van
Nyla Womack
Audra Pettit
5 4 3 1 6 2
4 3 1 5 2 6
2 1 6 4 5 3
6 3 4 2 5 1

20
Nina Fortune
Audra Van
Nadia Lee
Ester Lee
Audra Barlow
Dario Greiner
Demarcus Dockery
Cornelius Varelo
Kelli Barlow
Audra Pimentel
Shyann Ruby
Angeline Aragon
Eleanor Van
Aileen Lee
Kelli McDough
Nina Varelo
London Sterling
Kelli Ruby
Marian Sterling
Carson Fontaine
18 8 3 4 14 19 11 2 12 9 1 16 20 17 10 6 5 7 13 15
11 14 9 6 18 10 15 5 17 4 13 20 16 19 8 2 12 1 7 3
15 12 10 3 19 4 18 16 13 9 6 1 2 14 20 7 5 8 17 11
16 6 7 14 12 3 17 19 10 2 5 18 4 11 8 9 13 1 15 20
5 10 19 9 17 7 15 20 13 3 11 6 16 2 1 12 8 4 18 14
11 6 13 9 17 20 14 10 19 16 4 1 2 8 7 3 15 12 18 5
18 13 8 2 7 19 16 10 17 9 6 20 4 15 1 3 14 11 12 5
10 13 15 4 8 16 17 18 20 1 12 9 14 3 6 7 19 11 2 5
9 11 13 10 20 14 16 3 18 19 8 15 6 12 2 7 1 17 4 5
6 14 1 11 20 18 16 2 4 7 12 15 5 9 13 17 19 8 10 3
10 20 1 14 13 4 12 2 11 6 15 5 7 17 9 19 8 18 16 3
2 16 1 18 3 4 19 7 9 14 13 8 10 17 12 11 20 5 15 6
13 14 19 9 7 15 4 10 8 17 16 5 1 18 6 11 12 3 20 2
13 7 11 9 12 17 14 15 10 18 19 5 16 20 3 8 1 6 2 4
18 3 11 10 17 14 4 6 7 19 1 20 5 15 8 2 9 13 12 16
17 4 12 19 5 14 6 20 10 11 3 1 2 9 7 8 13 16 15 18
12 18 3 7 11 4 20 10 1 14 16 8 15 9 2 19 13 17 5 6
6 11 10 2 14 9 8 18 19 15 5 1 16 12 7 13 3 20 4 17
3 20 10 4 7 17 5 15 11 14 12 9 2 19 8 16 6 13 18 1

6
Ester Van
Rory Varelo
Nyla Arevalo
Demarcus Varelo
Demarcus Pettit
Demarcus Pimentel
3 6 2 1 5 4
2 6 1 5 4 3
5 6 4 2 1 3
3 6 4 2 1 5
6 3 4 5 2 1
6 5 4 2 3 1
6 1 2 5 4 3
2 5 3 6 1 4
3 1 6 2 5 4
5 3 2 6 1 4
1 5 3 6 2 4
5 6 2 3 1 4
4 2 3 5 6 1
6 2 3 5 1 4
6 1 2 3 4 5
3 1 5 4 2 6
2 4 6 5 3 1
6 5 3 2 1 4
5 2 4 1 3 6
5 6 2 4 1 3
5 3 6 4 1 2
6 2 3 4 1 5

9
Rashad Vaught
Demarcus Dockery
Cornelius Sterling
Nyla Ruby
Ester Venegas
Martha Pettit
Dario Lee
Kelli Dockery
Cornelius Varelo
2 8 3 4 1 5 6 9 7
1 6 7 8 3 9 5 2 4
9 1 4 5 8 6 7 2 3
7 8 4 5 1 3 9 2 6
9 3 4 7 5 6 8 1 2
4 9 6 2 3 1 8 5 7
8 2 7 4 1 5 3 9 6
2 8 7 6 3 1 5 9 4
4 5 9 1 6 7 8 2 3
6 8 1 5 4 7 2 9 3
2 4 5 6 9 7 8 1 3
1 4 6 2 9 3 7 8 5
3 6 5 8 4 2 9 7 1
5 1 2 7 4 6 3 9 8
3 5 4 7 1 8 6 9 2
3 6 2 5 9 8 4 1 7
1 2 3 9 4 8 6 7 5
4 3 7 2 6 8 1 9 5
7 3 6 9 1 4 2 5 8
7 3 5 4 9 8 6 2 1
2 3 1 7 6 4 5 9 8
4 8 1 2 3 6 9 5 7
6 9 5 8 7 2 4 3 1

11
Dario Sterling
Ania Pettit
Shyann Vaught
Ania Ruby
Rory Yu
Angeline Navarro
Cornelius Lee
Ania Fontaine
Rashad Dockery
Rory Dockery
Trevor Venegas
8 1 7 6 3 9 10 2 4 11 5
9 3 6 4 8 1 7 5 10 2 11
2 10 11 1 3 7 5 4 8 6 9
8 6 1 11 5 3 9 4 7 2 10
2 9 6 4 7 11 1 10 3 8 5
6 3 2 9 1 5 11 4 10 7 8
4 5 9 3 10 8 6 2 7 11 1
6 5 11 3 4 10 2 1 9 7 8
1 10 3 6 8 7 4 11 5 2 9
7 10 8 6 3 4 11 5 2 1 9
10 1 8 11 2 3 6 7 5 9 4
5 3 8 1 10 2 11 6 7 4 9
11 7 6 2 5 10 3 9 4 8 1
6 8 10 2 4 11 5 1 7 9 3
4 1 2 8 7 6 9 10 11 3 5
5 6 2 9 1 8 11 10 4 3 7
1 3 11 9 8 5 2 6 4 10 7
11 5 3 1 4 6 7 8 10 2 9
11 1 9 7 4 3 5 10 6 8 2
10 7 9 8 5 1 4 6 3 2 11
5 7 6 3 11 9 10 8 2 1 4
1 9 5 6 7 10 4 11 8 3 2
10 3 8 1 6 7 9 5 11 4 2
3 7 6 2 11 4 9 8 5 1 10
10 9 8 2 5 1 3 11 4 7 6
11 4 7 9 2 3 1 8 6 5 10
10 4 3 11 5 6 9 7 8 2 1
4 1 7 11 6 8 3 5 2 9 10
7 1 2 8 3 5 4 10 9 6 11
10 6 7 5 8 3 4 1 9 11 2
4 6 8 7 2 1 11 5 10 9 3
2 8 5 4 1 10 3 9 7 6 11
11 5 6 7 10 4 2 8 9 3 1
2 8 9 10 3 5 7 6 1 11 4
11 4 2 8 1 7 5 6 3 9 10
11 5 4 2 8 9 3 6 7 1 10
3 6 2 10 8 4 9 1 11 7 5
10 9 3 2 7 1 4 11 5 8 6
10 4 2 6 1 7 3 9 5 8 11
10 9 8 7 11 2 1 4 3 6 5
3 1 9 6 7 11 4 2 10 5 8
8 1 4 10 3 9 6 11 2 5 7
4 5 8 7 6 2 3 11 1 10 9
2 7 10 1 3 6 9 8 11 5 4
11 2 3 4 6 8 1 5 7 10 9

15
Shyann Fortune
Eleanor Pimentel
Demarcus Arevalo
Martha Venegas
Carson Pettit
Nyla McDough
Ester Navarro
Ania Glynn
Ania Womack
Cornelius Greiner
Aileen Glynn
Audra Pettit
Eleanor Vaught
Nyla Fortune
Kelli Sterling
14 7 11 13 3 15 10 4 2 12 6 8 9 5 1
3 2 9 12 5 7 1 6 8 4 14 11 15 10 13
2 9 13 12 4 5 1 3 11 14 6 7 15 10 8
5 14 8 3 1 6 12 11 2 10 15 9 4 13 7
14 7 11 2 8 5 9 12 10 13 4 1 6 15 3
1 5 2 12 14 13 11 15 8 7 3 6 4 10 9
14 5 2 6 3 12 1 7 8 11 15 10 13 9 4
6 11 15 14 1 7 5 3 10 13 8 4 12 9 2
14 3 12 2 10 8 7 15 1 5 11 13 9 6 4
14 11 10 4 5 8 9 13 15 12 1 6 7 3 2
13 8 14 15 7 5 3 1 4 9 2 10 11 12 6
9 13 2 1 3 14 7 6 4 12 8 5 11 10 15
4 12 14 1 3 2 13 6 8 11 5 7 15 10 9
1 15 3 12 9 2 5 6 4 10 11 7 13 8 14
11 6 15 12 2 10 5 8 1 13 7 14 9 4 3
11 2 9 12 8 4 6 15 3 7 13 10 1 5 14
4 12 13 7 8 14 9 10 3 11 2 15 1 5 6
6 14 1 9 11 2 8 3 7 12 5 15 10 13 4
2 3 13 6 15 8 4 7 14 11 9 10 5 12 1
2 14 7 8 15 4 11 3 6 9 1 10 5 12 13
4 13 5 15 1 10 14 11 12 9 2 7 3 6 8
4 5 12 10 3 7 15 1 13 9 2 8 14 11 6

12
Trevor Venegas
Ania Fontaine
Demarcus Lee
Nyla Arevalo
Marian Greiner
Nyla Womack
Kelli Womack
Kelli Varelo
Brynn Pimentel
Nadia McDough
Martha Pettit
Carson Navarro
2 11 7 5 9 4 10 3 12 8 1 6
2 5 11 9 3 6 7 10 8 12 4 1
4 12 2 1 7 9 6 11 5 3 8 10
11 12 5 7 3 2 6 9 1 4 8 10
10 1 5 8 4 2 3 9 7 11 6 12
1 6 2 9 7 8 12 3 4 10 5 11
12 7 2 5 4 8 10 6 9 3 1 11
7 6 12 4 9 5 8 3 11 10 1 2
10 2 9 5 4 1 12 7 3 6 11 8
2 7 8 4 11 1 12 3 6 5 9 10
1 7 2 10 9 5 11 3 6 12 4 8

19
Marian Ruby
Ester Womack
Rory Womack
Roy Sterling
Martha Pimentel
Rory Sterling
Trevor Greiner
Eleanor Pimentel
Audra Fontaine
Shyann Ruby
Eleanor Aragon
Audra Pimentel
Carson Lee
Brynn Dockery
Eleanor Van
Rory Pettit
Trevor Navarro
Brynn Pettit
Angeline Varelo
9 2 17 8 1 13 18 12 19 4 14 10 11 16 5 3 6 15 7
1 2 16 13 9 15 19 10 6 4 14 12 11 8 17 18 7 5 3
7 2 17 10 9 5 19 13 18 11 15 4 12 3 8 14 6 16 1
14 7 18 8 16 1 10 4 15 5 12 3 17 2 19 9 11 13 6
11 13 15 12 6 7 8 5 1 14 19 18 17 2 4 10 3 16 9
4 17 7 12 15 5 6 3 8 14 16 18 13 10 1 11 9 2 19
14 7 18 8 16 15 3 6 10 1 13 12 9 11 19 5 4 17 2
1 18 13 17 8 19 14 4 11 15 3 12 10 9 5 7 6 2 16
1 5 16 9 17 10 12 3 19 4 8 18 15 2 6 13 14 11 7
11 8 17 13 16 19 4 2 9 6 12 1 5 18 10 15 3 7 14
18 13 7 11 2 12 4 15 17 16 3 10 1 19 9 14 8 5 6
11 14 8 13 7 12 6 5 18 19 10 4 17 3 9 2 16 1 15
7 10 3 6 15 16 12 1 8 18 14 2 13 17 11 5 9 4 19
18 15 12 3 13 7 9 1 11 14 2 17 6 5 10 19 4 16 8
14 15 6 17 8 12 5 3 9 4 16 10 2 7 19 13 1 18 11
18 3 8 7 6 4 14 19 2 9 5 17 12 11 10 1 16 15 13
3 11 2 12 15 6 1 8 17 4 16 9 18 14 19 5 10 7 13
17 12 9 3 1 11 6 4 8 14 19 2 13 10 7 5 16 18 15
7 13 19 9 4 16 10 14 15 6 8 11 3 2 12 1 17 18 5
7 13 2 18 8 14 3 11 10 9 5 6 1 12 19 15 16 17 4
17 18 9 4 7 13 5 10 14 16 6 15 2 3 19 1 8 12 11
12 1 8 2 5 18 16 4 19 13 7 3 6 9 14 15 17 10 11
19 17 1 5 3 12 2 13 7 9 14 10 4 6 15 16 8 18 11
1 12 17 19 14 10 6 15 13 3 4 18 16 2 11 9 7 5 8
7 3 6 19 5 2 16 11 18 4 12 8 14 9 1 10 15 17 13
1 10 9 2 17 8 7 13 16 18 19 5 15 12 3 6 4 11 14
11 6 8 5 7 16 3 4 15 9 12 13 1 18 10 14 17 2 19
14 3 13 6 16 9 17 2 10 18 8 7 1 5 15 12 19 4 11
1 11 5 14 13 7 18 2 6 17 8 9 10 4 16 15 3 12 19
14 15 13 4 8 7 18 9 19 6 12 2 11 1 17 5 16 10 3
17 4 5 11 15 3 8 2 12 9 18 13 14 19 10 6 7 16 1
16 9 2 4 5 19 12 14 8 6 7 13 17 11 10 18 1 15 3
6 4 19 7 1 9 18 10 3 16 5 11 13 17 14 12 15 2 8
14 6 3 1 17 15 2 7 12 18 8 10 9 16 13 5 4 11 19
17 4 10 14 16 19 5 7 8 9 13 18 1 6 2 11 3 15 12
10 1 14 11 18 19 4 9 5 7 6 3 8 13 16 12 17 15 2
5 14 10 11 3 13 16 18 2 19 17 8 1 6 15 12 4 7 9
3 8 7 19 1 10 14 15 18 17 13 6 2 4 11 16 5 12 9
9 8 17 19 5 12 3 7 15 2 4 13 14 18 6 16 11 1 10
4 7 12 6 19 11 9 2 17 1 3 16 15 8 18 14 5 10 13
1 14 19 10 15 5 3 16 13 17 18 6 12 7 4 9 8 2 11
16 6 4 8 9 17 3 18 14 11 13 1 5 15 19 7 2 12 10
15 14 12 10 3 5 11 9 6 2 19 8 13 18 1 7 16 17 4
18 12 1 5 7 10 19 11 15 9 16 17 8 3 4 13 6 2 14
16 4 15 5 6 12 11 10 18 19 13 9 3 14 8 7 2 17 1

10
Audra Varelo
Roy Aragon
Ester Navarro
Nadia Aragon
Demarcus Barlow
Angeline Navarro
Dario Fortune
Audra Greiner
Kelli Lee
Kelli Venegas
8 7 3 9 10 2 1 4 6 5
3 8 2 7 5 9 1 10 4 6
8 4 6 5 10 3 9 1 2 7
7 6 9 5 10 1 2 3 8 4
9 10 3 4 5 6 7 1 8 2
7 5 6 9 3 8 10 1 2 4
7 6 4 5 1 3 9 10 8 2
7 10 2 5 4 1 8 6 9 3
3 9 10 4 5 8 6 7 2 1
3 6 5 10 1 2 9 8 4 7
9 7 8 3 4 10 1 5 6 2
5 8 2 7 6 10 1 4 9 3
3 5 10 1 7 4 6 8 9 2
1 9 8 2 3 5 7 4 10 6
4 5 6 8 3 2 1 7 10 9
10 6 4 2 8 9 3 7 5 1
1 5 8 6 3 4 7 10 2 9
2 6 4 3 5 10 8 7 9 1
10 4 1 8 3 7 5 9 6 2
2 6 4 1 3 8 7 5 9 10
2 9 3 10 5 6 7 8 1 4
7 4 3 10 6 5 9 1 2 8
6 2 9 1 7 5 4 3 10 8
8 7 6 2 1 3 4 5 9 10
10 1 8 6 5 9 3 7 2 4
10 3 1 8 5 4 9 7 2 6
3 10 9 5 6 2 7 1 4 8
9 6 4 2 5 3 1 7 10 8
3 8 7 5 2 9 6 1 4 10
4 1 3 7 10 5 6 8 9 2
1 4 9 7 2 6 5 8 3 10
7 3 2 8 4 9 6 10 1 5
2 9 3 4 5 7 8 10 1 6
9 8 2 4 10 6 7 5 1 3
2 10 7 4 9 5 6 3 1 8
3 8 9 4 2 10 5 1 7 6
7 8 3 4 6 5 9 1 10 2
10 9 7 3 6 5 8 1 4 2
7 1 8 2 10 4 5 9 3 6
7 9 8 4 2 5 6 10 1 3
8 7 4 3 2 5 6 1 9 10
5 9 2 10 3 4 8 1 7 6
2 3 7 5 4 8 9 6 1 10
8 5 4 10 9 1 6 7 3 2
9 6 1 7 10 5 3 4 2 8
2 1 5 4 10 9 3 8 6 7
3 9 6 5 2 8 4 1 7 10

10
Carson Aragon
Ester Varelo
Kelli Van
Trevor Dockery
Martha Fortune
Martha Sterling
Nina Fontaine
Demarcus Lee
Carson Ruby
Rashad Lee
6 1 4 2 3 8 7 10 5 9
2 5 7 4 10 9 6 8 3 1
2 1 7 6 8 10 9 3 4 5
2 1 8 7 9 3 5 4 6 10
4 7 8 10 6 1 5 9 3 2
2 9 3 1 8 6 4 5 10 7
3 9 8 5 6 4 7 10 1 2
8 9 1 10 5 3 4 7 6 2
6 2 7 9 1 4 8 10 5 3
5 6 7 1 8 4 9 10 3 2
6 1 2 9 7 10 3 8 4 5
10 2 5 6 7 4 3 9 8 1
10 8 5 3 2 1 4 7 9 6
4 8 5 3 1 10 9 6 2 7
3 6 5 4 9 8 1 7 2 10
4 7 5 8 1 10 2 9 6 3
10 5 4 8 7 3 1 2 9 6
8 5 3 6 2 7 9 1 4 10
10 5 3 1 8 7 4 9 6 2
5 7 6 10 8 3 1 9 2 4
1 9 6 2 8 3 5 10 4 7
9 5 4 8 1 6 2 3 10 7
1 9 10 5 2 7 4 8 6 3
7 9 2 3 4 10 8 5 6 1
10 8 4 5 1 9 6 2 3 7
5 7 1 10 4 6 8 9 2 3
8 9 5 7 10 3 4 6 1 2
4 2 1 9 6 5 7 8 3 10
2 4 8 5 1 10 3 6 7 9
3 10 8 6 1 7 9 4 2 5
6 2 5 9 8 10 7 1 3 4
9 10 4 8 3 1 5 2 6 7
2 4 3 8 7 1 10 9 5 6

10
Eleanor Fontaine
Rory Arevalo
London Glynn
London Barlow
Audra Pimentel
Dario Pimentel
Nina Van
Aileen Yu
Shyann Greiner
Trevor Greiner
2 3 7 8 9 5 4 10 1 6
4 8 7 3 6 2 1 10 9 5
6 2 7 5 3 9 8 10 1 4
6 1 10 2 7 8 9 5 3 4
5 8 1 7 4 10 3 2 6 9
6 4 9 5 10 8 1 3 7 2
5 3 6 8 9 10 4 7 1 2

5
London Yu
Kelli McDough
Carson Ruby
Aileen Womack
Rory Vaught
5 2 1 3 4
3 2 4 1 5
1 2 3 4 5
2 3 5 4 1
4 5 2 3 1
4 3 2 1 5
2 1 3 5 4
4 1 5 2 3
3 1 5 2 4
3 2 5 4 1
2 4 1 3 5
5 4 2 1 3
5 1 2 4 3
5 1 4 3 2
1 2 3 5 4
5 1 3 4 2
2 3 4 5 1
4 3 5 2 1
1 2 3 4 5
1 4 3 5 2
4 5 2 3 1
4 2 1 3 5
1 3 2 4 5

7
Eleanor Yu
Eleanor Varelo
Trevor Fontaine
Nyla Ruby
Demarcus Navarro
Kelli Greiner
Marian Womack
1 5 6 3 4 7 2
4 5 2 6 7 3 1
2 5 4 1 3 7 6
7 6 1 4 2 5 3
4 5 1 3 2 7 6
1 5 7 4 6 3 2
7 3 2 6 1 4 5
1 6 4 5 3 7 2
3 5 4 6 1 2 7
6 3 4 2 1 7 5
7 5 2 6 4 3 1
4 1 6 7 5 2 3
7 6 3 1 5 4 2
7 3 2 1 5 4 6
6 1 2 7 4 5 3
7 1 4 3 2 6 5

12
Aileen Pimentel
Demarcus Yu
Dario Varelo
Nina Sterling
London Sterling
Eleanor Vaught
Ania Van
Dario Barlow
Martha Vaught
London Lee
Eleanor Ruby
Nina Barlow
6 5 3 12 9 7 10 8 4 1 2 11
3 9 1 11 10 6 8 4 7 5 12 2
11 7 2 10 5 4 3 12 6 1 8 9
10 12 9 8 7 5 6 4 3 2 11 1
7 10 8 1 9 6 4 12 5 2 3 11
12 5 11 6 9 10 7 1 2 3 8 4
9 8 1 5 6 2 4 11 7 12 3 10
12 7 6 2 11 1 3 4 10 5 8 9
12 10 6 8 7 1 9 3 4 2 11 5
10 9 11 1 2 8 3 5 12 4 6 7
3 5 11 10 8 2 9 12 4 7 1 6
7 12 6 8 10 1 9 11 2 4 5 3
8 1 12 4 10 7 6 11 2 3 9 5
5 6 9 10 8 12 3 1 4 2 7 11
6 11 4 8 1 7 10 2 5 3 9 12
10 5 6 3 11 8 7 9 4 12 1 2
1 11 12 9 7 6 5 4 10 8 3 2
12 3 9 2 10 5 7 1 6 4 11 8
2 1 12 11 9 7 5 4 3 10 6 8
4 11 2 1 9 7 8 10 6 3 12 5
6 8 2 3 1 12 4 5 11 7 9 10
2 12 4 10 8 1 3 7 5 11 6 9
3 10 11 6 9 7 12 8 4 2 1 5
10 3 7 11 4 1 9 5 8 12 6 2
12 6 9 1 5 11 10 4 7 3 2 8
12 8 5 3 2 10 7 11 1 6 9 4
2 4 1 3 11 9 7 10 12 6 8 5
11 12 10 5 1 2 4 8 9 6 3 7

9
Trevor Van
Rory Varelo
Brynn Barlow
Ania Vaught
Marian Barlow
London Yu
Rory McDough
Rory Yu
Rory Barlow
3 5 4 6 8 7 2 9 1
8 9 7 6 5 2 3 4 1
3 8 1 2 6 4 9 7 5
9 4 5 1 8 3 6 7 2
1 3 7 8 6 9 4 5 2
2 4 5 6 1 9 8 3 7
9 4 8 2 7 1 6 3 5
4 6 1 3 9 2 7 8 5
3 2 7 4 9 6 8 1 5
7 8 5 2 1 6 3 4 9
2 1 5 3 7 4 6 9 8
8 3 5 6 9 7 4 1 2
6 9 3 1 8 5 4 2 7
6 4 3 1 2 5 8 7 9
1 6 8 5 9 7 4 3 2
4 3 5 2 9 6 1 7 8
3 1 9 6 4 7 5 8 2
9 5 2 6 1 4 8 3 7
3 8 1 7 4 5 6 2 9
4 5 7 9 1 2 6 3 8
9 1 5 3 4 6 2 8 7
8 4 6 3 5 9 7 1 2
9 2 3 8 5 1 4 6 7
4 6 7 3 5 1 2 9 8
1 6 9 4 7 2 8 5 3
8 3 9 6 2 1 5 4 7
1 3 9 4 6 7 2 5 8
2 9 4 6 1 8 7 3 5
9 1 2 8 5 7 4 3 6
2 4 3 1 5 7 9 6 8
3 5 1 2 7 9 8 6 4
5 4 1 3 9 8 7 2 6
7 5 9 6 1 8 4 2 3
3 7 8 2 9 1 5 6 4
4 6 1 8 2 3 9 5 7
1 9 7 5 2 6 3 8 4
1 4 5 8 9 3 6 2 7
3 2 6 5 8 1 9 7 4
2 6 8 1 9 3 7 4 5
7 3 2 1 9 4 8 5 6

12
Trevor Navarro
Rashad Venegas
Nina Venegas
Marian Aragon
Rory Fortune
Dario Venegas
Martha Van
Nina Barlow
Cornelius Ruby
Martha Vaught
Marian Arevalo
Marian Navarro
5 8 2 12 3 1 4 11 7 9 10 6
1 6 3 7 2 4 11 8 12 10 5 9
11 4 9 8 2 3 10 6 7 1 5 12
12 9 4 10 7 8 2 6 11 3 5 1
8 5 2 3 10 11 7 9 4 12 6 1
1 4 2 7 6 10 5 3 12 8 9 11
10 3 9 1 4 12 11 8 5 6 2 7
11 6 7 8 10 1 5 4 9 12 3 2
9 5 3 10 4 6 1 11 2 12 7 8
9 10 3 4 8 1 7 11 2 12 6 5
4 9 1 3 6 10 8 11 7 5 12 2
10 1 6 9 11 2 3 8 12 7 5 4
7 12 5 10 1 9 4 3 2 11 6 8
9 3 2 8 5 6 4 10 12 1 11 7
8 11 1 12 10 4 9 7 3 2 6 5
7 8 12 11 2 3 5 4 6 9 1 10
9 8 4 3 7 6 12 10 2 11 5 1
1 8 5 6 7 9 3 12 11 10 4 2
9 11 3 7 2 8 12 10 1 4 6 5
3 7 4 12 11 2 1 5 8 10 9 6
9 6 12 4 3 1 7 2 8 10 11 5
7 9 5 4 8 11 2 6 3 12 10 1
7 1 2 4 12 8 6 10 11 9 5 3
12 4 10 2 5 9 8 6 3 7 1 11
12 7 9 10 3 8 2 1 4 11 6 5
3 1 4 7 9 10 8 12 5 11 2 6
3 4 7 1 12 2 8 9 11 5 10 6
5 3 8 10 6 9 2 7 11 1 12 4
5 8 10 12 1 2 4 11 7 9 3 6
9 1 7 2 8 12 11 5 3 10 6 4
2 6 5 7 10 12 4 8 9 3 11 1
2 9 3 12 6 1 8 5 7 11 4 10
1 3 7 5 2 4 12 8 10 6 9 11
3 10 4 9 6 2 11 8 5 7 1 12
9 8 2 3 5 1 12 4 10 6 11 7
9 1 2 4 6 7 12 3 10 5 11 8
6 4 7 11 5 9 12 3 8 10 2 1
8 5 7 11 3 2 1 10 4 6 9 12
7 3 6 4 1 8 2 9 11 12 5 10
11 6 5 12 7 9 4 2 10 1 8 3
3 2 6 5 1 10 7 4 12 9 8 11
4 6 12 11 2 7 3 8 5 10 1 9
11 10 2 1 12 5 6 9 4 7 3 8
5 12 10 2 1 6 9 4 7 3 11 8
8 5 7 6 2 9 1 3 4 10 11 12
6 1 3 10 11 7 9 12 8 4 2 5
7 6 5 9 8 4 11 10 3 12 2 1

14
Carson Yu
Audra Sterling
Carson Ruby
Nadia Glynn
Eleanor Womack
Trevor Barlow
London Fontaine
Brynn Lee
Trevor Venegas
Donte Pimentel
Nadia Aragon
Kelli Ruby
Eleanor Barlow
Rory Fontaine
12 6 10 7 3 4 11 5 2 1 8 13 9 14
9 5 2 6 7 14 10 8 3 11 13 12 4 1
14 6 11 10 1 7 13 9 5 4 2 12 3 8

11
Carson Fortune
Ania Lee
Cornelius Womack
Ania Arevalo
Angeline Dockery
Demarcus Ruby
Donte Vaught
Ania Pettit
Carson Arevalo
Donte Arevalo
Nadia Fontaine
1 11 5 8 10 4 2 9 3 7 6
2 11 3 8 1 4 9 10 7 5 6
5 4 11 2 10 7 6 3 8 9 1
2 6 1 8 10 9 7 4 5 11 3
2 3 6 1 7 9 4 5 11 10 8
1 10 2 8 4 6 3 11 5 7 9
7 9 3 4 10 5 1 8 2 6 11
3 7 1 2 4 8 5 10 6 11 9
11 9 8 7 4 6 5 3 2 10 1
6 4 10 2 5 3 8 7 1 9 11
2 7 4 5 6 1 9 8 10 11 3
11 5 10 8 1 3 4 6 2 7 9
10 8 4 1 9 5 2 6 3 11 7
3 1 11 5 10 8 7 4 9 2 6
9 3 4 7 5 11 1 10 6 8 2
1 3 10 6 2 4 5 9 11 7 8
8 5 2 11 10 7 3 9 6 4 1
9 11 4 3 7 5 2 1 10 6 8
4 2 3 10 8 6 7 1 5 9 11
11 2 7 6 5 10 4 3 8 1 9
9 5 6 3 11 7 4 2 8 10 1
1 7 9 3 10 11 4 6 5 8 2
3 5 1 10 6 4 2 11 7 9 8

16
Nadia Glynn
Cornelius McDough
Aileen Arevalo
London Yu
Shyann Ruby
Rory McDough
Donte Dockery
Dario Womack
Carson Arevalo
Cornelius Glynn
Audra Arevalo
Dario Fontaine
Carson Vaught
Angeline Aragon
Marian Glynn
Angeline Glynn
16 15 9 11 7 5 1 13 4 2 10 3 14 12 8 6
8 5 4 1 9 13 12 6 14 15 2 11 16 3 7 10
5 14 3 4 13 16 10 6 7 1 2 9 8 11 12 15
10 8 11 5 7 13 15 2 3 1 6 4 16 9 12 14
7 10 12 2 8 15 14 11 9 1 13 16 5 6 3 4
12 14 5 1 10 8 7 4 16 6 3 9 13 15 11 2
1 12 2 9 4 14 16 15 10 3 8 5 6 13 7 11
4 15 3 1 11 7 5 12 2 14 8 13 9 16 6 10
8 4 1 12 14 9 13 6 11 2 7 16 10 3 5 15
11 2 6 16 13 1 15 14 3 8 9 12 7 4 5 10
9 11 4 13 2 3 1 5 12 8 16 6 10 14 15 7
10 12 2 8 4 15 16 5 9 1 3 14 6 11 7 13
14 16 11 1 7 15 12 10 6 3 9 13 8 2 5 4
2 11 15 12 7 10 9 4 14 13 3 1 5 16 6 8
7 1 3 12 16 5 10 13 2 9 14 15 6 11 8 4
9 3 12 8 11 10 4 13 1 5 7 16 15 6 14 2
4 2 13 1 9 5 10 16 11 6 7 14 3 8 12 15

10
Cornelius Fontaine
London Barlow
Angeline Arevalo
Donte McDough
Carson Fontaine
Eleanor Fortune
Nina Sterling
Eleanor Varelo
Brynn Fortune
Ester Yu
5 4 7 8 3 1 10 6 9 2
4 7 9 5 1 6 10 8 2 3
7 6 1 2 5 3 4 9 8 10
9 4 7 8 3 1 10 6 5 2
8 9 10 7 2 6 1 5 4 3

16
Nina Yu
Carson Fontaine
Nina Ruby
Cornelius Lee
Cornelius Womack
Dario Dockery
Rory Lee
Dario Sterling
Ania Dockery
Audra Glynn
Brynn Navarro
Eleanor Van
Cornelius Dockery
Ester McDough
Eleanor Glynn
Ania Glynn
4 15 13 16 7 9 14 1 3 5 12 8 2 6 11 10
11 16 4 12 9 8 3 7 6 15 14 5 13 2 1 10
1 11 10 4 13 14 8 15 16 7 6 9 5 3 12 2

15
Ester Womack
Donte Navarro
Aileen Varelo
Marian Yu
Aileen Pimentel
Nadia Lee
Dario Vaught
Marian Glynn
London Arevalo
Nadia Lee
Audra Pimentel
Eleanor Pettit
Martha Fontaine
Ester Barlow
Angeline Yu
13 3 11 7 15 5 2 9 10 14 1 4 6 8 12
4 5 13 15 12 9 14 6 8 11 1 7 2 3 10
9 10 12 3 4 14 8 11 13 7 2 6 1 5 15
15 6 13 11 8 7 3 2 1 12 4 10 9 5 14
6 13 10 14 1 4 3 8 7 9 5 11 15 2 12
2 5 11 7 10 13 9 15 6 12 3 1 14 4 8
6 7 3 1 5 9 13 8 2 10 12 15 11 14 4
11 7 4 3 5 9 13 8 2 10 15 14 1 6 12
12 3 8 4 13 7 2 10 14 5 11 6 15 1 9
3 15 1 2 13 4 5 14 10 8 11 6 12 9 7
9 4 1 3 15 13 12 11 8 5 2 10 6 7 14
7 8 13 10 1 11 6 4 15 9 3 12 2 5 14
1 3 5 7 10 12 9 8 13 2 6 11 14 4 15
11 10 7 14 4 13 3 5 9 12 8 6 2 15 1
13 1 9 2 7 14 8 5 10 11 12 3 6 15 4
13 12 10 2 9 14 5 6 1 4 7 11 8 15 3
12 7 15 13 3 1 11 5 8 14 9 6 10 4 2
2 4 15 6 7 9 12 1 5 8 11 13 10 3 14
10 9 4 5 13 8 15 2 3 12 7 6 14 11 1
9 4 10 3 5 11 2 15 14 6 13 7 1 8 12
14 9 11 15 4 8 1 5 13 2 7 6 12 10 3
14 15 13 9 7 5 11 1 4 2 6 3 10 12 8
11 2 9 12 6 8 15 13 5 14 1 7 10 4 3
6 13 12 11 4 9 3 7 15 10 5 2 1 8 14
13 8 5 3 2 7 6 15 4 1 14 11 9 10 12
14 10 3 13 15 12 4 6 11 2 1 5 7 8 9
7 15 14 3 10 1 11 12 9 2 6 13 8 4 5
1 8 5 15 13 14 11 3 2 10 12 6 9 4 7
7 13 11 10 6 4 3 1 5 2 14 15 12 9 8
14 13 12 7 15 8 1 9 6 5 10 2 4 3 11
12 13 7 9 8 5 1 10 6 2 3 14 15 11 4
2 10 13 6 5 9 7 12 11 4 3 1 8 15 14
3 4 10 12 1 2 11 6 7 14 9 5 15 13 8
13 7 9 3 2 1 14 6 10 4 11 12 15 5 8
13 15 8 12 2 4 9 5 10 3 7 1 11 6 14
8 12 1 10 13 7 6 3 9 2 15 4 5 11 14
11 2 13 10 1 9 14 6 3 5 8 15 7 4 12
15 12 14 5 7 11 9 3 10 13 8 4 6 1 2
9 12 10 15 14 5 4 8 13 6 1 7 11 2 3
14 4 3 1 11 7 9 2 6 12 5 13 15 10 8
1 12 13 11 5 15 8 14 6 7 3 10 4 2 9
3 14 7 6 1 5 15 13 10 8 2 4 12 11 9
11 8 5 10 15 12 6 14 3 1 2 4 7 13 9
7 14 10 5 13 9 1 6 2 4 15 3 12 11 8
8 7 3 5 4 10 1 11 13 9 2 6 14 15 12
9 7 5 4 10 13 2 6 1 3 8 14 12 11 15
10 15 1 14 13 7 12 8 3 4 5 9 2 11 6
13 3 6 11 10 9 14 15 5 12 1 2 8 7 4
7 12 1 4 5 8 10 13 6 15 3 9 2 11 14
3 14 5 11 4 10 13 12 9 15 8 1 6 7 2

1
Angeline Pettit
1
1
1
1
1
1
1
1
1
1
1
1
1
1
1
1
1
1
1
1
1
1
1
1
1
1
1
1
1
1
1

6
Rashad Dockery
Trevor Pimentel
Kelli Ruby
Shyann Fortune
Trevor Greiner
Nina Arevalo
6 5 4 1 2 3
5 2 6 3 4 1
6 1 5 2 4 3
5 2 1 4 6 3
6 3 2 4 1 5
1 6 4 3 2 5
3 2 4 6 1 5
5 3 6 4 2 1
2 1 3 6 5 4
3 5 4 6 1 2
2 6 3 4 1 5
6 1 5 4 2 3
5 4 3 6 1 2
1 3 5 2 4 6
4 6 1 2 3 5
2 4 3 6 1 5
5 2 1 4 6 3
4 3 6 1 2 5
3 5 6 4 1 2
3 4 1 2 5 6
2 5 1 6 4 3
4 6 5 3 1 2
6 4 3 5 1 2
1 3 2 5 4 6
5 4 2 6 1 3
2 4 3 5 6 1
2 4 6 5 1 3
6 1 2 5 3 4
2 6 4 3 5 1
3 1 6 4 5 2
1 3 4 6 2 5
6 1 2 5 4 3
3 5 1 6 4 2
3 6 1 4 5 2
1 4 3 5 6 2
1 2 3 4 6 5
3 6 4 5 1 2
1 2 6 5 3 4
5 6 3 4 1 2
4 5 6 3 2 1
1 4 2 3 6 5
5 4 1 6 2 3
6 2 4 3 5 1
1 5 6 4 3 2
1 3 2 6 4 5
5 6 3 4 1 2

17
Nyla Varelo
Angeline Dockery
Angeline Fontaine
Trevor Arevalo
Brynn Van
Audra Lee
Cornelius Yu
Nyla Greiner
Carson Pettit
Demarcus Aragon
Trevor Aragon
London Pimentel
Ester Venegas
Donte Fortune
Kelli Lee
Aileen Navarro
Nadia McDough
11 9 6 13 4 16 3 14 8 7 12 10 17 2 5 15 1
6 14 8 12 17 16 1 7 5 10 11 9 4 15 13 3 2
16 9 5 6 15 8 1 12 17 10 14 13 3 4 2 11 7
11 10 4 12 5 8 9 13 7 17 6 16 1 2 3 15 14
13 5 11 9 17 16 7 4 10 8 12 2 15 6 3 1 14
16 1 4 12 11 7 6 13 2 9 8 15 14 17 10 5 3
3 14 15 2 13 6 7 11 16 17 10 1 9 12 8 5 4
12 13 15 14 11 8 1 6 3 9 2 4 10 16 5 7 17
12 8 10 7 1 4 15 14 17 16 5 11 2 3 6 9 13
13 17 14 5 9 6 2 16 15 8 10 4 7 11 3 1 12
11 2 9 10 3 1 4 5 13 6 8 7 12 17 15 14 16
7 1 2 3 12 8 6 13 14 10 16 17 4 5 11 9 15
12 1 17 5 9 3 11 13 6 8 2 10 7 4 14 16 15
9 10 12 13 3 11 1 6 7 14 4 17 8 15 2 5 16
3 4 10 9 12 11 17 7 13 8 16 1 2 5 15 6 14
5 12 2 8 7 9 16 10 11 4 17 1 15 6 3 14 13
2 17 7 11 4 1 12 16 14 9 5 8 10 3 15 13 6
15 13 1 9 10 8 11 7 17 3 12 5 4 6 14 2 16
14 16 9 17 15 5 7 13 6 12 11 8 4 1 10 3 2
8 9 5 13 17 14 15 6 11 16 1 10 3 7 4 2 12
7 3 1 14 5 4 10 13 15 16 8 11 9 17 2 12 6
14 6 16 12 10 13 2 3 17 1 9 7 15 4 11 8 5
10 8 15 7 14 3 9 1 17 5 4 12 6 2 13 11 16
8 4 12 17 9 3 15 14 16 5 13 10 6 11 1 2 7
16 13 3 6 2 14 8 10 9 4 11 7 17 15 12 1 5
8 14 9 1 2 6 7 11 10 15 17 5 4 16 13 3 12
4 5 16 7 9 2 13 11 3 12 6 8 14 10 15 1 17
10 14 2 8 12 15 3 5 16 17 11 13 7 9 6 4 1
14 10 16 1 5 7 9 17 6 4 8 12 13 2 3 11 15
17 13 5 11 10 15 3 12 6 2 9 14 8 7 4 1 16
11 6 2 8 9 7 13 14 17 1 12 10 3 5 16 15 4
14 15 16 7 8 5 6 17 10 11 12 2 4 13 9 1 3
1 14 17 6 8 4 3 16 10 2 12 5 13 7 11 15 9
15 8 5 3 11 13 12 10 2 9 1 17 16 7 6 14 4
4 3 7 13 5 8 12 15 16 11 17 14 9 2 1 6 10
10 6 11 12 14 5 16 9 13 8 17 7 1 15 4 3 2
3 7 1 14 16 5 9 4 8 6 12 2 15 13 11 10 17
2 6 11 9 16 1 15 7 13 8 10 12 4 5 17 3 14
4 6 17 9 16 14 11 8 12 5 3 10 7 2 1 13 15
4 5 7 12 16 9 15 6 17 14 13 1 3 2 10 11 8
6 8 14 4 11 10 13 1 3 16 2 12 17 7 9 15 5
7 16 15 12 8 10 9 17 2 4 13 1 14 5 11 6 3
2 15 8 13 3 1 12 11 5 9 7 10 6 4 17 16 14
7 3 6 17 13 1 5 11 2 12 4 10 16 15 9 14 8
12 13 5 15 1 7 9 2 16 6 11 14 17 4 10 8 3

13
Cornelius Aragon
London McDough
Audra Varelo
Brynn Yu
Ania Pimentel
Audra Navarro
Dario Van
Ania Yu
Shyann Van
Nina Fontaine
Kelli Aragon
Audra Venegas
Dario Aragon
1 5 8 2 4 12 10 3 11 7 13 6 9
7 6 1 11 4 3 2 8 13 10 5 9 12
9 8 12 7 4 11 3 6 5 1 2 13 10
9 8 3 2 1 4 10 5 6 7 13 12 11
11 12 9 3 7 2 10 1 13 6 5 8 4
4 9 8 3 7 12 1 6 5 2 13 10 11
12 7 3 10 9 11 4 2 1 8 13 5 6
1 6 12 9 5 4 8 10 7 3 11 13 2
5 12 9 4 7 8 6 10 3 13 1 11 2

19
Ester Fontaine
Aileen Van
Dario Barlow
Shyann Navarro
Marian Pimentel
Ania Venegas
Kelli Pimentel
Shyann Aragon
Ester Arevalo
Roy Barlow
Dario Glynn
Ester Van
Nina Barlow
Demarcus Pimentel
Rory Navarro
Eleanor McDough
Roy Venegas
Rashad McDough
Rory Pimentel
1 5 3 16 10 12 15 8 19 6 18 2 9 17 11 14 4 13 7
4 17 9 11 13 16 14 18 7 2 8 1 3 12 19 10 6 5 15
11 10 7 9 8 13 19 6 2 16 12 18 17 15 14 1 5 3 4
13 17 8 9 5 14 18 7 12 1 4 3 10 6 2 19 15 16 11
7 10 12 17 15 4 9 5 2 1 6 14 13 16 3 8 19 11 18

7
Aileen Greiner
London Arevalo
Martha Fontaine
Marian Barlow
Eleanor Barlow
Cornelius Vaught
Brynn McDough
3 2 6 5 7 1 4
4 3 5 7 6 2 1
4 3 6 7 5 1 2
3 7 2 4 6 1 5
6 5 7 4 1 3 2
1 5 7 2 3 4 6
6 2 4 7 1 5 3
4 7 3 2 5 6 1
7 3 6 2 5 1 4
7 2 3 5 4 1 6
3 7 1 6 5 4 2
6 3 4 2 1 5 7
6 4 5 1 3 2 7
6 1 3 7 2 4 5
7 5 4 6 1 3 2
2 7 5 6 4 1 3
4 3 2 1 7 5 6
5 6 4 7 2 3 1
6 5 2 7 4 3 1
3 7 4 5 2 1 6
1 6 3 2 5 7 4
1 6 2 4 3 5 7
4 7 5 6 3 2 1
4 5 3 7 2 6 1
4 5 3 2 6 1 7
3 6 1 7 2 4 5
3 2 5 1 4 7 6
2 1 6 4 7 3 5
1 3 5 7 4 2 6
2 7 4 1 6 5 3
5 3 7 2 4 6 1
7 6 4 3 5 2 1
3 5 2 7 4 1 6
3 5 7 4 2 6 1
4 6 5 7 3 2 1
2 5 1 3 7 6 4
4 6 7 1 3 5 2
1 2 4 3 5 6 7
3 7 1 6 2 5 4
4 6 5 7 3 1 2
7 1 5 2 4 6 3
5 3 2 7 1 6 4
4 6 3 1 5 2 7
3 7 5 2 4 6 1
6 2 5 1 3 4 7
1 6 4 5 2 3 7
4 2 1 6 3 5 7
3 5 4 7 1 2 6

11
Ania Pimentel
Angeline Glynn
Demarcus Vaught
Nadia Ruby
Cornelius Varelo
Nyla Pettit
Nyla Varelo
Eleanor McDough
Audra Yu
Nadia Arevalo
Ester Aragon
1 8 2 6 5 7 11 10 9 4 3
1 4 3 8 11 10 2 5 9 7 6
8 7 11 4 2 1 9 6 5 10 3
11 9 4 1 3 5 2 7 8 10 6
8 10 4 7 11 1 5 2 3 9 6
4 2 11 5 8 7 9 3 1 6 10
1 2 8 9 11 6 3 7 10 5 4
7 9 10 11 2 3 1 5 4 6 8
6 3 5 1 7 8 2 10 9 4 11
1 6 4 5 3 7 9 8 11 2 10
4 1 2 8 9 3 5 6 7 11 10
6 3 10 8 11 9 4 1 5 7 2

18
Shyann Sterling
Trevor Lee
Martha Pimentel
Dario Dockery
Dario Glynn
Audra Varelo
Audra Lee
Kelli Lee
Nyla Greiner
Rashad Arevalo
Brynn Van
Kelli Pimentel
Nina Fortune
Eleanor Ruby
Ania Aragon
Nyla Navarro
Rashad Vaught
Nina Sterling
18 6 15 7 17 14 11 12 10 5 16 1 3 13 9 4 2 8
14 1 5 16 2 6 3 7 17 9 8 18 13 11 12 4 15 10
3 14 11 7 13 4 6 12 8 1 9 16 18 5 10 15 2 17
1 2 5 17 11 18 12 8 13 4 3 16 14 15 10 6 7 9
17 13 6 11 3 2 18 5 9 12 1 14 7 15 8 4 10 16
15 9 1 13 7 12 14 2 6 3 4 11 10 16 17 5 18 8
3 16 14 15 10 5 1 11 17 13 7 6 8 2 9 4 18 12
17 4 8 12 14 7 18 5 16 10 6 2 11 15 1 9 13 3
14 8 1 12 4 13 16 10 15 6 18 5 11 7 3 17 9 2
13 3 2 4 15 12 17 11 14 8 18 5 1 16 6 9 10 7
13 15 18 16 12 8 14 9 17 3 6 1 4 7 2 5 10 11
11 15 12 10 16 4 14 6 9 5 18 1 8 7 13 2 3 17
11 3 13 16 2 8 12 6 17 10 5 15 9 14 18 4 7 1
3 16 4 7 15 9 17 5 11 12 13 2 6 14 1 8 18 10
14 7 4 2 12 8 16 17 13 3 18 6 9 11 1 10 5 15
13 14 9 11 17 8 10 12 1 2 3 7 16 5 4 18 6 15
6 15 9 8 7 3 1 16 5 2 13 10 17 4 12 14 11 18
14 7 2 17 8 10 6 3 11 5 4 12 15 1 18 13 16 9
14 8 2 11 18 16 4 3 6 5 10 1 9 15 17 12 7 13
14 13 3 18 5 4 1 15 2 12 10 11 9 8 6 17 7 16
6 17 18 2 13 10 11 5 15 3 1 8 7 9 14 12 4 16
15 1 9 17 7 12 6 3 11 13 14 5 10 16 4 18 8 2
2 8 5 4 14 1 9 15 7 11 17 18 10 12 3 16 13 6
11 7 6 9 10 1 5 4 16 14 2 13 12 18 17 15 3 8
5 18 10 13 12 1 17 11 15 7 2 9 3 8 6 4 14 16
6 13 8 11 3 5 10 14 9 1 4 7 16 2 12 15 17 18
15 9 3 12 11 8 4 5 16 13 18 14 1 10 17 2 6 7
3 6 8 5 18 14 11 16 7 15 1 9 13 10 4 2 12 17
13 6 15 3 9 8 2 5 11 17 12 4 16 1 18 10 14 7
3 18 10 12 6 11 17 2 5 4 7 16 8 9 13 15 1 14
1 13 6 9 8 14 15 10 7 16 18 12 11 2 4 5 17 3
11 10 4 14 18 12 15 8 3 9 6 5 2 7 16 13 17 1
1 6 14 8 3 10 15 9 12 18 2 11 5 4 13 16 17 7
13 5 9 18 7 2 12 16 10 3 4 8 6 1 11 17 15 14
17 6 15 18 14 10 8 5 11 3 12 4 16 9 1 2 13 7
5 15 14 8 2 18 1 11 9 4 6 10 13 7 16 12 3 17

3
Marian Arevalo
Dario Lee
Angeline Pimentel
1 3 2
3 1 2
2 3 1
3 1 2
3 1 2
2 1 3
1 2 3
3 2 1
1 3 2
3 2 1
2 1 3
3 1 2
1 2 3
1 3 2
3 2 1
2 1 3
3 2 1
1 3 2
1 3 2
2 1 3
3 2 1
2 3 1
2 3 1
3 2 1
1 3 2
3 1 2
2 1 3
2 3 1
1 2 3
3 1 2
1 3 2
3 2 1
3 1 2
3 1 2
3 2 1
3 2 1
1 3 2
1 2 3
2 1 3
2 1 3
2 1 3
1 3 2
3 1 2
2 1 3
1 2 3
3 2 1
1 3 2

10
Rashad Pettit
Carson Sterling
Carson Yu
Shyann Lee
Carson Navarro
Audra Fontaine
Ester Ruby
Demarcus Glynn
Trevor Dockery
Shyann Pimentel
7 3 5 1 2 9 8 4 10 6
3 6 9 7 8 10 4 1 5 2
10 7 1 9 2 6 3 5 8 4
3 5 4 6 7 9 2 1 8 10
10 3 2 9 6 4 8 1 7 5
7 6 4 8 2 10 9 1 5 3
1 5 2 4 10 9 3 7 8 6
7 9 10 8 3 6 1 2 5 4
7 3 1 8 6 2 5 9 10 4
2 7 10 8 5 1 9 4 6 3
8 7 9 6 4 5 3 2 1 10
7 8 4 6 5 10 2 1 3 9
3 10 8 2 5 7 9 4 6 1
5 1 8 9 4 2 10 6 7 3
9 5 1 3 4 8 6 7 2 10
7 4 6 9 1 10 3 2 8 5
2 1 6 8 9 4 10 5 3 7
4 6 2 10 9 3 5 1 8 7
8 2 6 1 9 4 7 5 10 3
3 8 5 10 6 9 2 4 7 1
1 3 8 10 4 7 5 9 2 6
7 2 1 3 8 6 4 10 5 9
3 7 2 6 5 4 1 10 9 8
9 8 6 7 1 10 3 4 5 2
4 9 5 6 10 7 1 2 3 8
1 3 2 4 7 6 5 10 9 8

11
Donte Barlow
Roy Varelo
Roy Greiner
Donte Arevalo
Rory Van
Demarcus Dockery
Rory Pimentel
Kelli Womack
Audra Navarro
Rashad Lee
London Varelo
2 9 11 4 7 6 8 1 3 5 10
8 5 9 4 2 1 10 11 3 7 6
3 4 9 6 5 8 7 2 10 11 1
7 1 6 10 9 2 4 11 5 8 3
2 1 4 10 7 6 8 3 9 5 11
4 3 2 8 9 10 6 1 5 7 11
11 6 5 10 1 7 8 4 2 9 3
4 7 6 11 2 10 1 3 8 9 5
7 3 6 5 2 11 1 9 10 8 4
4 10 9 7 1 8 2 5 3 11 6
3 5 10 7 6 9 1 4 8 11 2
4 2 1 5 10 7 9 6 3 8 11
7 2 5 11 8 3 9 4 10 1 6
9 7 10 6 3 2 1 11 4 8 5
1 2 7 8 5 3 9 4 6 11 10
11 3 10 8 7 6 4 5 9 1 2
1 2 5 3 7 10 8 11 4 6 9
10 2 3 5 7 6 1 9 11 8 4
2 5 8 9 11 4 3 6 7 10 1
2 5 6 3 10 11 9 1 4 8 7
11 4 5 10 3 6 9 7 2 1 8
11 3 7 9 8 4 10 6 2 1 5
7 2 10 11 6 9 1 3 4 8 5
9 6 4 5 2 8 10 7 3 1 11
3 2 1 9 11 4 8 6 10 5 7
4 1 2 9 7 6 11 8 5 3 10
11 1 6 5 8 4 3 7 9 2 10
6 8 11 3 2 5 1 10 4 7 9
8 4 2 6 9 7 11 3 5 10 1
5 8 9 11 2 4 7 10 6 1 3
9 4 11 1 7 8 5 2 3 6 10
2 8 3 10 9 7 4 6 5 1 11
10 9 4 7 6 11 1 3 2 8 5
1 5 6 7 4 9 10 8 11 3 2
1 5 9 11 3 2 8 10 4 6 7

18
Nadia Van
Marian Venegas
Cornelius Pimentel
Nyla Sterling
Aileen Arevalo
Angeline McDough
Nina Vaught
Donte Ruby
Donte Van
Roy Sterling
Kelli Pimentel
Kelli Sterling
Nina McDough
Dario Arevalo
Nyla Venegas
London Glynn
Rory Navarro
London Barlow
16 14 5 11 9 3 18 2 15 13 7 4 12 6 8 1 10 17
12 2 16 17 11 14 6 3 9 8 15 1 10 4 13 7 18 5
14 7 5 1 11 13 6 3 8 9 18 12 10 2 15 16 4 17
10 7 14 5 8 12 17 11 4 18 3 6 9 1 15 13 16 2
13 7 9 6 11 4 16 1 15 17 18 8 10 12 3 14 5 2
13 18 12 2 15 4 5 17 11 3 1 9 6 10 14 7 16 8
10 17 11 7 2 13 14 5 16 1 9 8 15 3 18 6 12 4
13 3 12 5 2 18 10 14 16 4 1 17 8 15 6 7 11 9
14 15 4 11 8 18 7 3 10 9 5 12 17 6 13 16 2 1
6 15 8 5 4 10 13 12 1 16 2 14 11 18 7 9 17 3
12 8 1 10 15 7 5 2 14 11 18 16 6 3 9 13 17 4
7 12 11 10 8 9 4 17 13 2 16 6 18 14 5 3 15 1
4 3 6 10 18 14 9 16 2 12 11 7 8 15 13 5 1 17
5 6 17 7 18 3 16 10 8 2 12 13 14 4 9 1 11 15
7 3 9 18 13 6 8 10 17 4 11 1 16 12 5 2 15 14
13 15 4 3 6 16 5 9 17 11 2 12 8 7 10 18 1 14
2 1 14 17 3 5 8 16 15 18 9 12 11 7 4 10 6 13
13 8 14 15 17 1 4 5 11 6 16 18 7 9 2 3 10 12
13 15 17 8 3 12 4 2 7 5 14 9 18 11 1 6 10 16
16 5 10 11 15 6 9 17 13 7 18 4 12 14 8 2 1 3
1 6 3 17 7 10 14 11 16 8 2 4 12 13 18 5 15 9
4 6 18 14 11 13 8 5 7 12 15 3 9 1 10 16 17 2
7 10 11 17 2 6 14 12 13 9 15 5 16 3 8 1 4 18
2 5 14 17 11 18 1 12 10 6 13 8 4 9 15 3 7 16
1 7 10 5 9 16 14 2 11 4 15 17 3 18 8 13 12 6
13 2 4 16 9 6 18 15 14 12 17 11 1 7 3 10 8 5
11 16 17 13 2 15 3 6 4 12 8 14 9 1 5 18 10 7
11 6 16 5 17 13 18 10 8 1 15 2 4 14 7 3 12 9
4 2 17 16 10 3 11 1 9 12 18 13 15 8 7 14 5 6
8 15 11 2 5 7 18 12 14 3 16 13 10 4 6 17 1 9
13 9 3 10 17 15 6 8 1 7 16 11 5 18 14 12 4 2
16 6 2 14 12 11 13 5 7 1 17 15 10 8 9 3 18 4
7 6 17 10 2 16 4 3 15 14 18 12 1 13 9 8 5 11
12 10 14 3 6 1 17 2 8 15 7 11 13 18 9 16 4 5
14 13 4 7 6 2 18 15 9 8 16 17 5 1 12 11 10 3
12 8 3 2 1 7 6 16 15 17 5 10 13 14 18 9 11 4
10 13 1 5 6 12 16 18 8 11 15 17 4 14 2 9 3 7
12 13 10 17 2 5 15 8 9 1 4 16 6 14 7 3 18 11
11 17 5 12 13 18 2 15 1 8 16 4 14 7 3 10 6 9
2 11 12 10 8 9 17 6 16 13 15 5 1 7 4 18 3 14

7
Cornelius Sterling
Donte Navarro
Rashad Dockery
Eleanor Glynn
Dario Dockery
Ester Arevalo
Nina Glynn
1 2 5 7 6 4 3
1 3 6 2 7 5 4
7 5 2 1 3 6 4
6 1 7 2 4 3 5
7 2 1 6 5 3 4

8
Nadia Ruby
Ester Arevalo
Carson Arevalo
Audra Pimentel
Ania Greiner
Trevor Sterling
Dario Ruby
Demarcus Pettit
2 3 6 8 4 1 7 5
3 7 4 5 2 6 8 1
8 6 1 2 5 7 3 4
5 4 1 2 3 8 7 6
2 4 5 3 7 8 6 1
1 7 8 6 4 2 3 5
4 5 2 6 8 3 1 7
8 3 1 4 6 2 5 7
3 7 5 4 2 8 1 6
7 6 2 3 4 8 1 5
2 5 8 7 1 3 6 4
5 7 2 4 3 1 8 6
4 5 2 8 1 7 6 3
3 6 8 1 5 4 7 2
5 1 2 4 7 8 6 3
6 1 5 4 3 8 7 2
2 5 4 3 1 7 8 6
5 7 3 2 1 4 8 6
1 7 6 5 2 4 3 8
7 3 8 5 4 6 2 1
4 8 7 3 1 5 2 6
2 6 1 8 7 4 5 3

13
Eleanor Van
Nadia Womack
Rory Dockery
Eleanor Sterling
Aileen Ruby
Cornelius Arevalo
Demarcus Lee
Nyla Aragon
Donte Vaught
Ania Vaught
Angeline Vaught
Cornelius Womack
Carson Van
5 12 1 11 8 2 7 13 6 10 9 3 4
10 7 4 6 13 5 2 11 12 1 9 3 8
4 5 1 13 7 6 3 12 11 2 10 9 8
3 9 10 4 13 5 7 8 12 2 6 1 11
1 9 6 2 5 10 11 12 13 4 7 3 8
3 6 8 11 9 7 12 5 2 13 1 10 4
7 10 8 2 11 6 12 3 1 13 4 5 9
10 13 12 6 4 1 8 9 5 7 2 3 11
4 13 7 10 9 3 11 1 2 12 8 5 6
9 11 8 2 12 10 13 1 5 3 6 7 4
11 13 7 8 3 4 10 5 12 9 6 2 1
8 7 10 12 9 3 1 2 11 6 5 4 13
12 10 11 3 6 1 5 13 4 2 8 7 9
3 4 11 6 9 8 13 7 5 2 10 12 1
13 1 3 12 10 2 8 11 7 4 5 9 6
9 2 12 5 7 10 3 11 13 1 6 8 4
12 2 10 8 4 5 6 3 1 9 13 7 11
7 2 4 6 10 11 5 13 1 9 8 12 3
4 10 7 3 1 9 11 2 8 13 5 12 6
6 11 9 2 1 5 7 13 4 3 12 8 10
10 1 11 6 2 9 4 8 7 12 5 13 3
12 4 1 13 8 10 5 6 11 7 9 2 3
5 8 2 3 10 1 4 11 12 9 7 13 6
10 5 13 4 8 2 11 12 7 1 3 9 6
6 9 4 7 12 10 3 5 2 8 11 1 13

8
Nina Varelo
Brynn Yu
Rashad Glynn
Dario Vaught
Roy Greiner
Marian Lee
Trevor Dockery
Marian Fontaine
8 2 4 5 3 1 6 7
6 5 1 8 2 7 3 4
6 4 8 7 3 1 5 2
4 6 3 1 7 2 8 5
6 3 4 2 8 7 5 1
1 8 4 2 5 3 6 7
1 8 3 2 4 6 5 7
8 3 1 4 7 5 6 2
6 2 4 3 1 7 8 5
6 7 2 5 8 3 4 1
5 2 8 3 1 4 7 6
1 2 3 7 4 5 6 8

1
Roy Glynn
1
1
1
1
1
1
1
1
1
1
1
1
1
1
1
1
1
1
1
1
1
1
1
1
1
1
1
1
1
1
1
1
1
1
1
1
1
1
1
1
1
1
1
1

11
Rashad Arevalo
Demarcus Pettit
Eleanor Fortune
Rory Lee
Dario Arevalo
Shyann Ruby
Demarcus Womack
Nina Dockery
Dario Van
Audra McDough
Rory Aragon
9 7 1 2 8 4 10 6 3 5 11
1 10 4 9 2 5 7 6 8 11 3
6 7 10 5 11 9 3 1 2 8 4
1 8 4 5 2 9 6 3 10 7 11
11 9 3 6 1 7 4 5 10 8 2
5 1 2 6 11 9 8 7 3 4 10
2 6 5 8 10 4 7 3 11 9 1
8 7 6 4 1 2 10 9 5 3 11
4 10 9 2 6 1 3 7 11 8 5
1 6 2 7 10 4 9 11 3 8 5
9 6 7 8 3 10 4 1 11 5 2
2 10 3 9 5 11 1 8 4 6 7
8 10 7 6 9 4 5 2 11 3 1
9 5 10 2 3 7 1 6 11 8 4
6 11 5 8 4 10 1 3 7 2 9
6 2 8 7 5 9 10 1 4 11 3
11 8 3 5 9 7 10 1 6 2 4
11 8 3 7 9 4 1 5 2 10 6
7 1 9 3 6 11 5 2 4 8 10
6 1 2 11 5 4 8 7 3 10 9
7 6 3 2 5 11 1 8 4 10 9
7 11 8 5 6 3 9 2 4 1 10
3 9 5 2 7 4 10 1 8 6 11
10 9 6 1 4 7 11 3 8 5 2
11 8 9 5 10 3 6 7 1 4 2
7 8 2 1 10 5 9 6 4 3 11
11 4 7 2 5 9 8 3 1 10 6
8 10 1 3 9 6 11 5 4 2 7
5 9 1 4 10 8 3 2 7 11 6
4 5 2 7 9 3 1 8 11 6 10

8
Aileen Lee
Shyann Venegas
Trevor Yu
London Lee
Nyla Pimentel
Martha Pimentel
Nina Ruby
Dario Van
5 7 8 3 6 1 4 2
5 3 7 6 2 4 1 8
4 8 7 2 6 1 3 5
3 7 6 2 8 4 1 5
8 7 2 6 1 4 3 5
5 7 2 8 6 1 3 4
8 7 1 2 6 3 4 5
6 1 3 7 8 5 4 2
4 5 7 8 6 3 1 2
7 8 6 3 2 5 4 1
7 3 6 8 1 5 4 2
7 8 3 4 2 1 6 5
4 6 3 8 2 1 5 7
4 5 2 3 6 1 8 7
6 3 8 7 5 4 1 2
1 6 8 2 7 4 3 5
6 5 1 7 8 3 2 4
7 4 2 1 5 6 3 8
2 8 5 1 3 6 7 4
1 7 3 2 6 5 4 8
1 4 2 8 5 7 6 3
5 3 7 2 6 8 4 1

10
Eleanor Van
Demarcus Ruby
Donte Van
Aileen Glynn
Demarcus Navarro
Nyla Navarro
Audra Dockery
Martha Yu
Shyann Ruby
Cornelius Van
2 5 1 9 4 3 7 8 6 10
1 8 4 2 5 9 7 3 6 10
2 6 7 1 10 9 4 5 3 8
5 10 1 2 7 3 6 4 9 8
1 9 5 8 2 10 3 4 7 6
5 8 6 10 4 2 7 1 9 3
10 3 2 9 6 7 5 4 8 1

4
Trevor Venegas
Marian Fortune
Shyann Greiner
Nyla Sterling
2 1 4 3
4 2 1 3
3 1 4 2
3 1 2 4
1 3 4 2
3 1 4 2
2 1 4 3
3 4 2 1
1 4 2 3
4 3 1 2
1 3 4 2
1 3 4 2
4 2 3 1
2 3 1 4
2 1 3 4
1 2 4 3
3 4 1 2
2 3 4 1
1 3 2 4
4 3 2 1
2 1 3 4
4 1 3 2
3 4 1 2
3 2 1 4
2 1 3 4
3 2 1 4
3 4 2 1
1 2 4 3
2 1 3 4
4 1 3 2
3 2 1 4
1 3 2 4
4 1 3 2
4 2 1 3
4 2 1 3
1 3 2 4
2 3 1 4
3 1 2 4
2 4 3 1
1 3 2 4
3 4 1 2
3 2 1 4

7
Nyla Ruby
Eleanor Pettit
Roy McDough
Trevor Glynn
Demarcus McDough
Shyann Sterling
Demarcus McDough
4 6 2 5 7 3 1
2 3 5 1 6 7 4
4 1 2 5 3 7 6
2 6 3 1 5 4 7
7 5 4 2 1 3 6
3 1 4 6 7 5 2
1 6 2 5 7 3 4
1 7 5 3 4 2 6
7 3 6 1 2 4 5
4 1 6 3 7 5 2
5 3 4 6 1 7 2
4 6 5 7 2 1 3
4 7 6 2 3 1 5
3 6 4 1 7 5 2
3 4 6 2 1 5 7

13
Dario Aragon
Audra Venegas
Marian Fontaine
Martha Pettit
Audra Greiner
Kelli Pimentel
Demarcus Glynn
Kelli Dockery
Angeline Arevalo
London Arevalo
Rashad Vaught
Rory Fortune
Marian Ruby
1 13 7 9 11 12 6 5 4 8 3 10 2
5 3 13 11 1 2 8 10 12 4 9 7 6
12 3 10 4 8 11 6 9 5 1 13 7 2
10 4 8 13 1 5 9 11 3 12 7 2 6
8 5 6 10 4 13 7 1 3 11 9 12 2
4 7 8 9 1 2 3 5 13 11 6 10 12
4 3 11 1 9 5 12 10 2 13 6 8 7
4 5 6 7 2 12 9 10 8 13 3 1 11
8 5 7 13 2 4 3 6 1 11 10 9 12
7 2 4 11 13 12 1 5 8 6 3 10 9
11 3 4 1 2 9 13 8 7 12 10 5 6
4 7 11 10 8 12 5 3 9 2 13 6 1
3 6 12 1 10 7 5 9 4 11 8 13 2
7 13 6 10 5 9 8 2 1 3 12 4 11
10 4 2 7 6 9 13 12 1 5 3 11 8
1 13 11 9 8 3 10 7 2 5 6 12 4
4 9 1 10 5 12 7 6 13 11 3 8 2
3 8 10 7 6 4 5 11 12 13 2 1 9
1 9 13 4 12 11 7 10 6 8 5 2 3
7 1 4 13 6 9 11 12 3 2 10 5 8
6 11 9 7 3 2 5 10 12 4 13 1 8
8 9 5 12 2 7 11 13 6 4 10 1 3
10 2 4 13 5 8 11 7 9 6 3 1 12
5 3 11 6 12 7 9 10 4 13 8 1 2

1
Angeline Yu
1
1
1
1
1
1
1
1
1
1
1
1
1
1
1
1
1
1
1

2
Rory Sterling
Rory Glynn
2 1
1 2
1 2
1 2
1 2
1 2
2 1
1 2
2 1
1 2
2 1
2 1
2 1
2 1
2 1
1 2

17
Rashad Glynn
Rory Vaught
Trevor Fontaine
Nyla Barlow
Angeline Vaught
Ester Womack
Donte Navarro
Shyann Venegas
Dario Greiner
Ania Aragon
Eleanor Fortune
Marian McDough
Nadia Sterling
Carson Fortune
Donte Van
Nyla Sterling
Brynn Pettit
7 6 15 8 1 17 9 11 2 12 3 4 5 13 14 10 16
6 16 3 15 1 2 9 13 17 4 14 10 7 11 12 8 5
12 3 13 9 10 6 16 1 15 11 2 7 5 8 4 17 14
7 14 1 13 2 6 4 9 17 11 8 10 5 16 3 12 15
15 4 2 16 17 13 14 7 5 10 9 11 1 12 8 3 6
8 14 7 13 4 15 12 1 6 9 11 2 5 10 3 17 16
12 7 9 11 8 10 1 4 5 14 13 3 15 2 17 16 6
8 9 3 2 14 4 6 1 13 15 10 11 5 16 7 17 12
13 14 17 10 5 11 7 9 3 2 8 15 1 4 12 16 6
15 1 17 14 3 4 2 13 6 10 9 8 11 5 12 16 7
7 16 3 14 11 6 13 12 2 17 5 10 1 15 8 4 9

6
Audra Lee
Trevor Yu
Nyla Aragon
Nadia Pettit
Cornelius Pimentel
Cornelius Glynn
6 5 1 4 3 2
3 2 4 6 5 1
4 6 1 5 3 2
6 5 3 2 4 1
3 5 6 2 4 1
3 6 2 4 5 1
4 3 6 5 2 1
4 5 2 6 1 3
2 4 1 3 6 5
1 5 3 6 4 2
3 1 6 4 5 2
6 2 1 3 4 5
1 5 4 2 6 3
5 3 6 1 4 2
4 6 2 1 5 3
4 6 5 1 3 2
1 3 2 6 5 4
1 5 6 4 3 2
4 3 1 5 2 6
2 1 3 5 6 4
3 5 4 6 1 2
4 5 3 6 2 1
5 4 3 1 6 2
1 4 5 2 3 6
5 1 2 4 6 3
2 6 5 3 4 1
5 3 1 4 2 6
4 1 6 3 2 5
3 6 4 5 1 2
4 1 5 3 2 6
3 2 4 5 1 6
6 5 2 3 1 4
5 2 4 1 6 3
4 5 3 1 6 2

6
Martha Greiner
Donte Glynn
Carson Navarro
Nina Van
Angeline Pettit
Angeline Vaught
3 6 5 1 2 4
1 3 4 2 6 5
2 6 5 4 1 3

9
Marian Glynn
Demarcus Pimentel
Ania Van
Shyann Vaught
Angeline Yu
Nina McDough
Carson Sterling
Marian Ruby
Demarcus Fontaine
1 6 7 8 5 9 2 3 4
7 6 3 5 2 8 4 1 9
4 8 5 9 7 6 2 1 3
6 3 1 5 2 4 8 7 9
1 6 5 9 4 8 3 2 7
9 6 5 3 8 2 7 4 1
5 3 8 2 9 7 1 6 4
5 1 3 4 7 9 8 6 2
9 3 4 8 2 1 6 7 5
1 7 9 5 6 2 3 8 4
8 1 4 6 2 7 5 9 3
1 4 2 5 6 9 3 7 8
8 1 2 6 7 3 9 4 5
1 6 3 7 4 9 5 2 8
3 8 4 6 1 2 9 5 7
3 8 9 5 6 1 4 2 7
7 5 6 1 4 2 9 3 8
4 9 7 6 5 2 8 3 1
4 3 1 6 2 7 8 9 5
7 6 4 2 5 3 8 9 1
1 4 9 2 7 3 8 5 6
7 4 6 5 8 3 2 9 1
7 2 9 3 8 6 1 4 5
4 8 7 2 1 9 5 3 6
7 4 9 5 2 1 8 6 3
6 4 7 3 9 5 8 1 2
3 4 2 5 6 9 8 7 1
6 1 9 5 4 2 7 8 3
9 7 4 6 2 3 5 8 1
3 9 5 6 1 4 7 2 8
9 4 8 2 5 1 6 7 3
1 6 4 3 7 9 2 5 8
4 7 1 9 6 3 2 8 5
8 2 4 7 3 9 6 5 1
2 8 1 3 4 6 5 7 9
3 7 2 8 5 1 4 6 9
4 9 1 3 8 2 7 5 6
4 2 8 7 5 1 3 9 6
2 1 9 7 3 5 8 4 6
3 4 5 1 7 6 8 9 2
7 5 9 4 3 6 8 2 1
2 4 8 7 1 3 5 9 6
7 4 3 2 5 9 8 6 1
9 3 8 4 7 6 1 2 5
4 1 3 5 7 9 2 6 8
4 5 3 1 9 6 7 2 8

17
Carson McDough
Roy Venegas
Cornelius Yu
Donte Glynn
Nyla Sterling
Roy Fontaine
Marian Pettit
Marian Pimentel
Rashad Womack
Angeline Glynn
Nyla Greiner
Angeline Sterling
Ester Vaught
Kelli Dockery
Audra Fortune
Brynn Fontaine
Shyann Fortune
15 2 7 5 10 11 1 8 14 6 17 9 4 12 13 3 16
17 8 14 3 10 5 1 15 9 16 6 12 7 13 11 2 4
1 15 2 12 17 14 8 10 5 4 7 9 6 13 3 11 16
3 10 1 15 6 13 2 14 5 7 12 11 17 16 8 4 9

2
Ester Aragon
Shyann Pettit
2 1
2 1
1 2

14
Rashad Varelo
Marian Yu
Nina Glynn
Angeline Lee
Trevor Fontaine
Ania Glynn
Demarcus Dockery
Martha Dockery
London Womack
Nina Navarro
Kelli Ruby
Dario Pimentel
Cornelius Venegas
Shyann Yu
2 13 7 9 11 1 8 14 4 3 5 6 10 12
7 11 3 4 2 14 8 1 13 9 6 5 10 12
13 1 6 4 3 11 8 7 10 9 5 12 2 14
6 11 7 5 12 10 8 2 4 9 1 3 14 13
8 13 6 3 7 11 1 2 9 10 5 12 14 4
3 12 10 13 6 5 1 11 4 14 9 2 7 8
4 12 3 6 8 13 10 11 2 9 7 5 14 1
9 6 3 14 4 12 1 2 13 5 11 7 10 8
8 5 14 11 4 1 3 10 7 12 6 2 9 13
14 13 1 2 3 9 6 4 11 12 10 7 8 5
8 13 7 12 14 3 2 9 1 5 10 4 11 6
6 11 14 2 3 8 10 12 9 7 5 1 13 4
13 9 5 4 11 1 10 6 14 7 12 2 8 3
13 10 2 5 11 1 14 9 12 3 8 7 4 6
8 2 6 7 12 1 13 14 3 11 9 10 5 4
14 6 1 13 2 9 10 12 4 11 8 7 5 3
2 11 4 10 9 6 12 5 14 7 8 3 13 1
1 6 8 2 7 14 11 12 4 10 5 3 13 9
1 3 4 5 6 2 13 12 10 8 11 9 14 7
4 7 8 1 2 13 14 3 5 12 9 11 10 6
13 1 2 4 14 3 9 6 10 7 5 12 11 8
9 13 11 4 8 3 6 1 2 12 5 10 14 7
4 14 12 9 7 13 3 10 11 2 6 8 1 5
2 10 7 11 3 1 8 12 6 5 13 9 14 4
6 1 10 7 9 11 12 13 4 8 2 3 5 14
7 12 8 4 5 9 1 13 11 6 3 2 14 10
9 6 2 12 10 1 5 11 3 7 14 8 4 13
3 1 12 9 11 5 4 8 10 7 14 13 2 6
2 5 10 3 14 11 13 1 7 8 6 9 4 12
7 4 10 3 1 6 8 2 13 11 9 12 14 5
6 4 5 12 14 7 10 11 13 9 2 1 3 8
8 6 7 4 11 14 2 3 10 12 1 5 13 9

1
Dario Navarro
1
1
1
1
1

6
Nyla Yu
Nina Fontaine
Cornelius Yu
Nyla Yu
Marian Dockery
Angeline Barlow
3 6 2 1 4 5
3 6 2 5 4 1
6 1 5 2 3 4
5 4 1 3 2 6
1 3 2 5 4 6
1 3 2 5 6 4
6 2 4 5 3 1
3 1 5 2 6 4
6 4 5 1 3 2
3 1 2 4 6 5
3 5 4 2 6 1
6 2 1 3 5 4
3 2 5 6 4 1
6 3 4 5 2 1
6 1 4 5 3 2
3 1 4 5 6 2
5 4 6 3 2 1
4 3 1 5 6 2
4 5 1 2 3 6
1 3 2 4 6 5
5 6 2 4 3 1
3 5 2 4 1 6
5 4 2 1 6 3
1 6 3 5 4 2
4 2 3 5 1 6

20
Ester Arevalo
Ania Barlow
Shyann Womack
Nyla Dockery
Demarcus Aragon
Brynn Fortune
Trevor Barlow
Rashad Fontaine
Kelli Ruby
Roy Fontaine
London Glynn
Demarcus Ruby
Audra Pimentel
Roy Navarro
Angeline Dockery
Dario Sterling
Nina Vaught
Donte McDough
Rashad Venegas
Donte McDough
14 9 2 11 19 4 15 5 18 17 12 1 7 8 20 6 3 13 10 16
4 14 18 13 19 5 10 9 8 11 16 12 15 20 6 3 17 1 7 2
18 17 13 9 19 8 2 11 12 6 4 1 7 15 16 3 5 10 20 14
11 13 3 19 1 16 20 12 4 18 10 7 14 2 5 17 15 9 6 8
18 9 17 6 7 13 20 15 14 16 8 19 10 11 12 1 2 5 3 4
13 16 7 17 12 14 3 8 11 6 1 4 2 9 10 18 15 20 19 5
7 2 3 10 12 16 18 19 14 11 17 9 5 13 15 4 6 20 8 1
2 18 10 17 15 14 12 8 16 3 6 7 1 20 19 5 11 4 9 13
1 5 11 7 3 12 18 14 4 10 9 13 19 2 17 8 6 15 16 20
11 7 9 4 3 19 1 2 17 6 20 12 5 8 16 15 13 10 14 18
5 1 20 16 18 7 10 12 14 17 2 8 19 3 15 13 9 6 11 4
13 6 3 8 20 11 16 12 7 19 15 18 17 4 14 1 5 10 2 9
5 8 12 3 13 18 1 17 10 4 20 14 9 6 2 16 7 19 11 15
10 8 11 1 17 15 20 18 4 3 6 12 16 14 19 13 9 2 5 7

14
Nadia Barlow
Donte Greiner
Ania Womack
Dario Womack
Roy McDough
Marian Lee
Rashad Van
Carson Dockery
Carson Vaught
Trevor McDough
Ania Ruby
Dario Vaught
Audra Fortune
Rashad Barlow
10 14 13 11 7 8 9 3 2 6 12 1 5 4
4 1 12 2 13 9 11 6 7 10 8 5 3 14
6 8 11 5 10 14 4 7 1 12 9 13 2 3
3 5 2 7 11 8 10 14 6 13 12 9 4 1
9 5 1 6 7 10 14 8 2 11 3 4 12 13
8 5 4 6 9 2 13 7 1 14 3 11 10 12
8 7 2 14 6 1 4 3 11 5 13 12 9 10
3 10 12 7 2 9 5 1 8 14 13 11 4 6
8 3 14 6 12 5 7 9 1 13 4 11 10 2
9 6 7 5 12 3 4 1 14 8 10 11 2 13
13 4 12 5 7 8 1 14 9 2 6 3 10 11
11 9 8 5 10 14 13 1 12 4 2 7 6 3
1 4 11 8 12 6 10 9 13 2 5 3 7 14
6 10 12 11 1 4 7 5 13 2 14 9 8 3
9 10 11 12 5 14 3 13 1 8 7 2 4 6
9 8 11 13 2 1 3 14 5 4 7 10 6 12
11 7 9 3 12 10 8 14 1 5 4 6 13 2
3 7 4 1 9 14 11 8 12 6 10 5 13 2
10 2 12 7 8 13 5 14 1 3 4 6 9 11
2 14 8 6 13 4 7 5 10 9 1 12 11 3
2 3 10 12 1 13 8 11 7 14 9 5 6 4
7 9 10 5 4 1 8 6 13 12 14 11 2 3
6 14 8 11 4 5 10 1 12 13 9 7 3 2
7 3 12 8 4 6 2 13 1 10 9 5 14 11
13 12 11 9 7 5 14 2 8 10 3 6 1 4
3 8 2 9 13 7 5 11 12 4 14 6 10 1
5 3 14 7 6 2 10 12 8 11 4 9 13 1
3 13 8 9 12 2 10 1 7 4 5 14 11 6
1 6 11 8 5 4 7 2 10 3 9 13 12 14
6 14 2 13 12 7 11 4 9 10 1 3 8 5
13 4 8 11 3 10 2 14 12 6 1 5 7 9
1 6 8 4 5 2 11 7 10 13 12 9 3 14
11 12 13 5 1 4 7 10 14 2 8 9 3 6
6 9 4 8 5 7 2 11 14 3 13 10 1 12
6 1 3 7 8 2 5 12 10 13 9 14 4 11
1 11 8 4 3 5 13 2 7 9 14 6 10 12
5 3 4 14 13 6 12 1 7 11 2 8 9 10
8 9 10 4 2 12 14 7 5 11 3 13 1 6
1 10 8 5 6 2 4 7 11 9 13 12 14 3
6 10 3 1 4 11 13 12 8 14 5 9 2 7
3 4 11 14 2 1 10 8 7 5 6 9 13 12
2 10 11 12 8 7 4 5 1 3 14 6 9 13
13 1 9 6 5 7 4 2 11 8 10 3 12 14
2 7 10 6 3 12 8 14 4 11 1 5 13 9
4 3 1 13 11 6 2 7 8 9 5 14 12 10
11 1 3 7 13 8 10 2 4 14 9 6 5 12
3 10 4 1 14 9 12 7 2 13 6 8 11 5
10 13 7 2 9 11 12 6 3 4 14 8 1 5

19
Carson Sterling
Martha Aragon
Nina Pettit
Nadia Navarro
Cornelius Lee
London Vaught
Audra Navarro
Dario Fortune
Nyla Pettit
Nyla Greiner
Nadia Yu
Roy Fortune
Nina Fontaine
Nyla Varelo
Shyann Sterling
Ania Vaught
Ester Greiner
Martha Sterling
Trevor Greiner
12 14 7 2 16 13 11 9 3 8 5 15 19 18 4 17 6 1 10
3 8 10 5 15 16 19 2 9 17 4 11 14 18 6 1 13 7 12
3 10 8 11 14 18 12 1 9 16 6 2 7 5 17 4 19 15 13
6 17 10 14 7 11 12 1 15 9 5 19 8 13 18 4 2 3 16
13 8 1 12 16 6 11 3 2 5 17 10 18 4 19 7 14 15 9
4 8 14 18 15 12 6 9 2 3 7 13 16 1 10 19 11 17 5
14 17 5 18 15 11 4 3 16 9 8 13 19 1 12 6 2 7 10
19 12 4 9 10 11 14 6 16 1 5 18 3 7 13 8 15 17 2
1 19 18 4 17 12 7 8 2 10 16 15 14 11 13 6 5 9 3
19 2 4 16 9 11 15 18 1 12 17 6 13 8 5 14 10 3 7
17 4 18 15 3 14 10 6 7 19 9 1 16 8 5 2 13 12 11
2 11 3 16 4 17 13 14 18 6 10 12 5 9 19 7 15 1 8
16 4 18 5 6 10 17 12 14 15 2 7 1 19 8 9 13 3 11
5 16 13 2 10 4 15 18 8 7 1 9 19 6 3 12 11 17 14
15 12 2 1 3 11 19 14 4 13 6 16 7 9 8 5 18 10 17
13 6 12 1 10 18 15 8 16 7 4 3 5 11 14 9 17 2 19

9
Dario McDough
Kelli Fortune
Roy Fortune
Nyla Fortune
Kelli McDough
Aileen Womack
Ania Varelo
Aileen Ruby
Kelli McDough
8 6 9 1 3 5 7 2 4
6 3 7 2 9 8 5 1 4
7 3 1 2 6 5 4 9 8
7 4 2 5 9 1 8 6 3
9 5 6 3 2 4 8 1 7
4 9 8 6 3 2 5 7 1
4 6 9 8 5 1 7 2 3
3 9 7 8 2 4 6 5 1
2 4 1 3 8 9 6 5 7
1 6 7 3 9 2 8 5 4
6 1 9 7 3 2 4 5 8
5 4 6 8 3 7 1 2 9
8 3 6 7 1 2 5 4 9
1 7 6 2 4 5 8 9 3
8 9 6 7 3 1 4 5 2
5 4 2 6 9 1 7 8 3
6 9 7 3 8 2 4 5 1
1 2 8 4 7 5 6 9 3
5 1 9 4 8 6 2 7 3
1 3 5 8 7 2 9 4 6
4 8 9 1 3 6 7 5 2
1 5 8 9 7 2 4 6 3
1 5 4 7 6 2 9 3 8
9 2 3 8 7 5 1 6 4
1 8 4 5 9 2 6 7 3
5 9 8 3 6 1 2 7 4
1 2 6 8 5 3 4 7 9
7 8 1 2 5 9 3 6 4
4 3 8 2 7 9 5 1 6
2 3 7 5 4 6 1 8 9
5 9 3 1 4 2 8 7 6
7 3 8 5 1 6 9 2 4
2 4 6 1 3 9 7 8 5
1 4 7 6 9 8 2 5 3
7 8 2 3 4 1 6 9 5
3 1 4 6 5 8 2 7 9
8 5 7 9 6 4 2 3 1

6
Rory Ruby
Nyla Ruby
Nadia Fontaine
Ester Greiner
Ester Sterling
Audra Yu
4 3 2 1 5 6
3 6 1 4 2 5
5 1 4 2 6 3
2 3 4 1 5 6
5 3 1 2 6 4
1 2 5 6 3 4
3 6 2 1 5 4
5 4 6 1 3 2
2 5 6 1 4 3
4 1 6 2 5 3
5 1 2 6 4 3
5 4 2 6 1 3
6 5 3 2 4 1
5 1 2 3 6 4
4 1 5 2 3 6
1 5 4 2 3 6
5 3 2 1 4 6
1 2 4 3 5 6
5 6 1 4 3 2
4 3 6 1 5 2
1 5 3 4 6 2
1 4 3 6 5 2
2 3 1 4 5 6
1 2 5 3 4 6
6 3 4 2 5 1
1 4 6 2 3 5
2 4 6 5 1 3
2 6 1 5 3 4
4 1 3 5 2 6
4 5 1 2 3 6
6 1 3 5 4 2
2 1 3 4 5 6
1 3 6 2 5 4
4 3 5 2 1 6
3 1 2 4 5 6
6 1 5 4 2 3
1 4 6 5 3 2

6
Aileen Greiner
Trevor Navarro
Martha Ruby
Rory Yu
London Van
Nyla Barlow
1 4 6 2 3 5
2 3 6 4 1 5
5 1 4 2 3 6
2 5 4 1 6 3
4 1 6 2 5 3
4 5 6 2 1 3
4 6 3 1 5 2
3 5 4 6 2 1
2 3 6 5 4 1
3 6 2 5 4 1
2 6 4 5 1 3
4 1 3 5 2 6
3 2 5 6 1 4
3 1 4 6 2 5
1 6 2 5 4 3
6 4 3 2 5 1
1 2 6 5 3 4
1 5 6 4 2 3
4 2 1 6 5 3
3 6 1 4 2 5
3 1 6 4 5 2
2 3 1 5 6 4
2 5 3 6 1 4
5 1 6 3 2 4
1 5 3 6 4 2
5 1 4 2 3 6
1 6 5 4 3 2
6 1 5 2 4 3
1 3 6 5 4 2
3 4 5 6 2 1
3 6 1 4 2 5
2 5 4 1 6 3
1 4 3 2 6 5
1 5 4 3 6 2
1 5 4 6 3 2
2 6 4 3 1 5
1 3 2 4 6 5
4 2 1 3 5 6
3 2 5 6 4 1

18
Shyann Varelo
Dario Dockery
Marian Pimentel
Marian Navarro
Demarcus Pettit
Audra Lee
Carson McDough
Ester Barlow
Angeline Van
Ania Dockery
Donte Fontaine
Rashad Pimentel
Cornelius Barlow
Trevor McDough
Nina Womack
Nadia Venegas
Donte Ruby
Audra Greiner
11 16 17 14 2 7 13 1 15 18 5 4 10 12 3 9 6 8
11 14 12 4 6 5 3 7 10 16 15 8 9 18 1 17 2 13
7 1 15 2 10 13 12 4 14 11 5 17 6 8 9 3 18 16
5 8 1 16 2 9 12 6 3 13 17 18 10 4 15 11 7 14
17 3 12 14 16 15 6 9 10 4 13 5 2 11 1 8 18 7
10 7 14 3 4 15 18 5 6 8 16 13 17 1 2 12 11 9
8 17 1 10 15 2 3 5 9 7 18 16 6 4 13 12 11 14
2 12 6 4 11 3 15 16 9 17 18 8 5 1 10 14 7 13
6 1 12 15 4 10 14 18 11 17 13 2 3 16 5 7 8 9
13 16 1 11 9 14 2 5 15 3 12 6 18 8 10 7 4 17
16 8 15 10 5 12 1 9 14 3 2 11 18 7 13 17 6 4
4 7 3 9 18 14 11 2 6 5 1 10 15 17 12 13 16 8
1 12 2 10 16 11 7 6 3 5 8 9 15 18 13 17 14 4
16 5 2 13 10 4 9 1 11 3 18 14 12 6 17 7 15 8
1 16 11 18 7 5 13 3 8 10 12 4 6 2 14 9 17 15
1 16 7 4 5 6 9 8 15 11 3 18 17 13 12 10 2 14
10 9 18 1 17 13 14 15 11 2 12 3 8 5 7 4 6 16
2 6 11 4 17 10 5 13 3 7 12 1 15 9 8 16 18 14
2 17 4 6 10 5 15 16 3 11 13 18 1 9 12 7 8 14
4 9 3 12 5 11 2 10 15 16 7 6 17 8 14 1 18 13
8 9 2 5 15 18 11 7 13 12 14 17 6 4 16 1 10 3
6 18 16 13 17 12 14 1 9 7 4 2 3 11 10 8 5 15
4 8 9 14 15 17 12 1 11 18 10 7 2 16 13 3 6 5
15 12 5 17 10 2 3 6 16 14 4 7 18 1 11 13 9 8
10 13 17 16 11 12 8 3 2 1 14 4 5 7 6 18 9 15
12 9 2 4 14 7 6 15 18 11 13 5 16 10 8 1 17 3
13 11 4 12 1 16 3 15 14 7 9 8 2 10 18 6 5 17
11 3 1 9 14 16 6 15 13 5 10 7 17 2 4 12 8 18
18 16 4 10 3 5 11 14 13 2 6 12 15 8 17 7 9 1
13 1 6 8 11 3 2 12 16 18 7 10 17 14 5 4 15 9
18 17 11 10 14 2 7 13 3 12 5 9 4 1 16 8 6 15
4 3 15 2 16 11 9 17 13 10 7 5 1 12 6 8 14 18
11 4 7 2 1 8 13 14 6 15 12 18 17 3 5 9 16 10
16 11 3 4 7 9 17 15 12 18 2 1 14 8 5 6 10 13
18 13 16 14 7 12 2 17 8 4 1 6 10 11 9 5 3 15
10 2 9 6 5 1 7 15 16 8 14 11 4 12 17 18 13 3
6 13 3 17 5 10 2 8 12 4 15 14 1 7 18 11 9 16
8 15 4 5 18 17 13 14 9 12 3 11 7 1 10 2 6 16

4
Martha Vaught
Roy Barlow
Ester Van
Nina Fortune
2 1 3 4
3 1 4 2
3 2 1 4
3 2 1 4
2 4 3 1
1 2 3 4
1 2 3 4
1 3 4 2
1 2 4 3
2 4 1 3
2 3 4 1

6
Demarcus Pettit
Carson Greiner
Trevor Venegas
Nyla Fortune
Dario Arevalo
Demarcus Sterling
2 6 3 4 1 5
1 5 3 2 6 4
2 1 3 6 4 5
1 6 2 4 3 5
6 1 3 4 2 5
3 2 6 5 1 4
5 3 6 2 4 1
5 3 2 4 6 1
2 6 3 4 1 5

19
Roy Barlow
Marian Lee
Brynn Barlow
Martha Ruby
Donte Fontaine
Nyla Womack
Rashad Fontaine
Eleanor Aragon
Martha Womack
Shyann Venegas
Angeline Greiner
Donte Sterling
Ania Ruby
Brynn Womack
Donte Van
Demarcus Lee
Nyla Aragon
Eleanor Arevalo
Nina Womack
4 3 17 9 7 16 2 11 1 18 19 13 15 5 14 6 8 10 12
2 12 11 1 13 4 14 16 7 15 5 10 6 18 17 9 8 3 19
12 16 19 13 3 1 4 2 11 5 15 17 6 9 18 10 8 14 7
8 18 11 19 6 9 14 17 15 13 2 3 10 12 4 5 1 7 16
12 7 3 10 8 18 1 13 17 2 4 19 6 16 11 15 14 5 9
3 17 10 19 14 16 7 13 12 18 9 15 1 11 8 4 6 2 5
6 9 5 13 1 10 4 8 3 2 18 17 7 16 15 14 12 19 11
11 17 16 2 6 15 9 4 19 13 5 3 7 12 8 1 14 18 10
15 17 4 7 13 11 16 5 1 18 9 8 6 14 19 10 12 3 2
11 5 9 13 2 19 7 8 15 16 1 17 18 14 4 6 10 12 3
15 3 12 11 9 17 6 4 10 14 18 1 7 13 5 8 2 19 16
9 5 10 2 15 3 4 18 17 1 8 7 14 13 11 16 12 6 19
17 19 16 15 13 3 7 2 10 8 12 5 18 6 14 4 9 1 11
3 7 9 10 18 6 15 4 2 8 13 1 5 16 17 19 14 12 11
7 14 11 18 19 5 15 9 17 3 2 10 8 1 6 12 13 16 4
5 12 13 7 8 9 17 2 11 19 16 10 18 6 1 15 14 4 3
12 7 15 10 13 2 16 8 14 18 1 5 9 4 17 6 11 19 3
12 6 17 14 1 11 10 5 7 4 13 3 18 19 16 9 2 8 15

11
Brynn Fontaine
Martha Dockery
Brynn Womack
Roy Varelo
Cornelius Arevalo
Audra Glynn
Shyann Sterling
Rashad Sterling
Donte Pettit
Nina Varelo
Eleanor Womack
2 7 8 4 10 3 6 11 5 9 1
6 4 7 3 9 10 5 2 11 8 1
5 9 1 4 10 2 11 3 7 8 6
6 4 11 7 8 10 5 9 2 3 1
11 3 8 4 7 2 5 1 6 9 10
9 5 6 4 3 10 1 7 2 11 8
9 8 11 6 7 4 3 1 5 10 2
1 7 3 5 2 9 8 10 11 4 6
4 8 3 11 6 1 7 2 5 9 10
6 5 1 2 10 7 11 4 3 9 8
4 1 11 9 5 3 6 10 8 7 2
7 4 1 11 10 8 9 5 2 3 6
10 1 7 11 6 3 4 2 9 8 5
10 3 6 5 2 7 8 1 4 11 9
10 6 3 11 2 8 4 5 9 1 7
9 3 8 7 4 1 10 2 5 6 11
10 5 4 9 6 1 7 11 3 2 8
6 10 8 2 11 7 4 9 5 1 3
1 7 8 2 9 11 10 3 5 4 6
5 6 3 7 11 1 9 2 8 10 4
10 6 11 3 9 8 5 4 2 7 1
11 7 8 2 6 4 1 3 9 5 10
4 6 1 7 10 8 2 5 3 9 11
6 4 10 11 2 5 7 1 9 8 3
8 4 7 1 10 5 3 6 9 11 2
4 11 8 3 10 7 1 6 5 2 9
10 8 7 3 2 9 6 11 5 1 4
4 3 6 8 5 1 11 2 9 7 10
8 9 11 6 2 5 7 10 4 3 1
1 2 11 7 3 6 10 8 9 4 5
3 7 11 5 10 9 2 1 6 8 4
11 7 2 4 6 9 10 3 8 5 1
8 5 9 10 6 4 3 1 2 11 7
7 5 9 11 6 10 1 8 2 3 4
9 6 10 3 1 8 5 11 2 4 7
7 8 11 3 9 2 1 6 5 4 10
10 2 9 7 4 11 3 6 8 1 5
4 5 8 7 9 6 1 2 3 11 10
6 3 1 4 5 2 10 7 8 9 11

16
Martha Varelo
Donte Sterling
London Fontaine
Kelli McDough
Carson Navarro
Nadia Pimentel
Rashad Sterling
Carson Dockery
Audra Barlow
Nadia Navarro
Brynn Ruby
Demarcus Barlow
Shyann Dockery
Rashad Womack
Kelli Glynn
Trevor Dockery
2 3 6 7 14 11 4 13 8 5 9 10 12 15 16 1
2 15 10 9 8 14 16 3 12 7 5 4 6 1 13 11
6 4 8 9 3 16 12 13 7 2 11 5 10 14 1 15
6 4 2 15 7 11 3 16 9 14 12 5 10 13 8 1
6 9 15 13 7 12 3 2 16 1 14 5 4 8 11 10
7 14 8 2 5 11 4 3 9 16 1 15 12 6 10 13
15 2 9 13 1 14 10 4 6 11 16 12 8 7 3 5
10 1 4 16 2 8 5 9 13 14 6 11 7 12 15 3
3 15 6 11 8 12 13 1 16 5 14 7 2 4 9 10
9 12 13 8 2 1 11 10 15 16 5 6 4 3 14 7
12 14 13 4 1 8 9 6 10 3 2 16 11 5 7 15
13 11 14 6 16 8 2 4 12 15 3 7 1 5 10 9
3 2 1 7 14 4 13 16 11 15 10 5 6 9 8 12
6 11 5 7 2 13 15 8 10 3 12 16 4 14 1 9
3 14 5 12 1 2 13 6 11 7 4 15 8 10 9 16
6 14 3 11 16 13 2 1 15 10 5 7 9 12 4 8
1 8 16 10 2 9 3 11 12 7 4 6 5 15 14 13
16 3 6 10 9 5 15 2 8 12 7 11 14 1 13 4
10 5 8 3 16 14 9 7 4 13 11 6 12 15 1 2
8 15 16 1 6 12 4 3 2 7 13 5 10 11 9 14
13 14 6 10 15 9 7 8 1 5 16 3 2 11 4 12
4 8 1 3 13 2 6 14 7 10 16 5 11 9 15 12
11 6 10 4 12 3 9 16 15 13 7 5 14 1 8 2
16 4 13 10 5 3 9 12 15 7 14 2 6 8 11 1
8 3 13 5 12 7 10 2 15 11 9 6 16 4 1 14
3 16 7 5 6 13 1 15 14 12 11 4 8 10 9 2
15 1 4 12 6 7 5 9 8 13 2 16 3 10 11 14
11 2 5 4 1 9 6 8 13 16 12 10 3 7 15 14
3 7 6 9 4 13 16 15 2 11 14 10 5 1 12 8
11 7 13 9 5 15 3 4 10 6 1 2 14 8 12 16
15 14 2 7 3 5 12 11 8 13 10 16 1 4 6 9
12 11 2 9 16 1 6 7 3 13 10 4 8 15 14 5
14 8 4 11 2 5 1 9 13 3 6 12 10 7 16 15

8
Eleanor Varelo
Roy Yu
Martha Navarro
Trevor Venegas
Nadia Dockery
Ester Pettit
Nadia Womack
Aileen Arevalo
6 5 1 3 2 8 4 7
4 5 6 7 3 8 2 1
5 1 4 2 8 7 3 6
1 6 4 2 7 5 8 3
1 5 2 8 7 3 4 6
4 5 6 3 8 2 7 1
5 6 2 4 1 3 7 8
2 5 1 6 8 4 3 7
8 7 3 5 4 1 6 2
8 1 7 3 4 2 5 6
4 7 1 3 8 6 5 2
7 5 2 8 3 4 1 6
3 8 6 1 4 7 5 2
6 5 8 4 7 2 1 3
1 5 4 7 6 2 3 8
7 1 6 3 4 8 5 2
4 2 3 1 6 8 7 5
8 2 4 6 3 1 7 5
5 8 4 3 2 6 7 1
4 2 6 8 3 1 7 5
3 8 5 2 7 4 6 1
4 2 5 3 7 1 6 8
5 2 6 4 3 1 8 7
5 2 3 8 4 1 6 7
5 6 8 2 3 4 1 7
3 1 2 4 6 8 7 5
4 8 3 7 1 6 2 5
6 2 4 1 7 8 3 5
8 3 4 7 2 6 5 1
1 7 6 3 8 4 2 5
1 2 7 4 8 3 6 5
3 6 5 7 8 2 1 4
6 7 4 5 1 3 8 2
1 8 5 6 4 3 7 2
7 6 2 1 3 4 8 5
8 7 3 2 1 6 4 5
2 6 8 5 4 3 1 7
2 7 3 5 8 6 4 1
3 5 7 4 6 1 2 8

6
Nyla Yu
Carson Navarro
Nadia Aragon
Nyla Van
Nadia Yu
Donte Fontaine
2 3 4 6 5 1
4 2 6 1 3 5
3 1 4 6 5 2
3 5 4 6 2 1
6 1 5 4 2 3
1 4 5 6 3 2
6 2 1 5 3 4
1 3 4 6 5 2
3 5 4 6 1 2
6 2 3 4 1 5
5 1 4 6 3 2
5 1 6 3 4 2
2 3 6 4 5 1
3 5 6 4 1 2
4 1 5 3 6 2
4 2 5 3 1 6

10
Ania Pimentel
Brynn Van
Marian Womack
Rashad Vaught
Nyla Glynn
Nina Glynn
London Pimentel
Aileen Dockery
Rory Yu
Ester Fontaine
1 10 3 7 2 8 4 6 9 5
6 7 5 8 3 1 9 10 2 4
2 10 5 3 9 6 8 4 7 1
5 2 7 4 1 9 3 6 10 8
3 6 1 10 8 9 7 5 4 2
3 5 9 7 10 1 8 4 2 6

8
Marian Aragon
Shyann Fortune
Audra Barlow
Ester Vaught
Brynn Pimentel
Demarcus Varelo
Nina Pettit
Cornelius Yu
2 3 1 8 4 6 7 5
3 5 6 2 4 7 1 8
1 3 7 4 2 5 6 8
4 5 2 1 6 7 3 8
7 1 4 3 5 6 8 2
5 8 7 2 3 4 1 6
4 2 1 7 8 6 5 3
1 6 5 3 8 4 2 7
3 5 1 7 6 2 8 4
4 5 3 7 8 1 6 2
6 3 5 2 8 4 7 1
6 3 2 4 1 5 8 7
2 1 7 6 4 3 8 5
2 3 7 5 6 1 4 8
3 4 7 5 2 6 8 1
2 3 7 8 5 6 1 4
6 8 2 5 7 4 1 3
6 4 7 8 2 5 1 3

19
Rashad Van
Nyla Pimentel
Marian Vaught
Angeline Greiner
Cornelius McDough
Rory Venegas
Ester Dockery
Demarcus Yu
Marian Lee
Nyla Lee
Nadia Ruby
Dario Fontaine
Carson Vaught
Cornelius Aragon
Dario Van
Rashad Pimentel
Donte Varelo
Martha Pettit
Cornelius Dockery
15 9 19 17 7 1 6 14 13 16 4 8 12 18 2 5 3 10 11

9
Roy Womack
Aileen Vaught
Dario Varelo
Kelli Venegas
Nadia Dockery
Nadia Pettit
Brynn Pimentel
Demarcus Fortune
Aileen Arevalo
9 5 1 6 4 3 8 2 7
7 3 2 4 8 5 9 1 6
2 5 9 1 8 3 6 4 7
1 3 4 2 5 7 6 8 9
6 4 9 5 1 7 3 8 2
1 2 9 8 6 5 4 3 7
1 9 7 5 8 3 4 6 2
9 5 3 7 4 8 6 1 2
7 6 5 8 4 9 2 3 1

8
Shyann Van
London Sterling
Marian Lee
Kelli Fortune
Audra Fontaine
Dario Venegas
Demarcus Greiner
Kelli Fontaine
6 5 3 7 8 1 4 2
2 4 7 6 8 1 5 3
2 6 1 8 4 7 3 5
3 8 2 5 6 4 1 7
5 7 8 6 3 2 4 1
4 2 5 7 8 6 3 1
7 6 1 4 2 8 5 3
8 1 5 2 3 4 7 6
8 6 3 1 2 4 7 5
4 1 7 5 2 3 6 8
6 3 2 4 1 7 8 5
7 4 2 1 8 6 5 3
4 5 1 8 2 3 7 6
6 1 4 3 8 5 2 7
4 3 1 7 5 6 2 8
1 6 2 4 8 7 3 5
1 6 8 4 2 5 7 3
5 4 3 1 7 8 2 6
4 6 3 7 2 8 5 1
8 6 4 5 2 7 3 1
5 8 2 1 3 4 6 7
2 4 6 8 7 1 5 3
5 6 8 2 7 1 3 4
5 8 6 7 4 1 2 3
5 2 7 1 8 4 6 3
6 1 2 3 5 7 8 4
8 3 4 2 1 6 7 5
4 7 3 2 5 6 8 1
5 2 4 8 3 1 6 7
6 1 5 2 3 7 4 8
1 5 2 3 6 7 8 4
5 2 1 4 3 7 6 8
4 1 5 3 7 8 6 2
5 8 3 7 2 4 1 6
4 2 7 1 6 8 5 3

10
Angeline Fortune
Kelli Vaught
Aileen Pettit
Demarcus Fortune
Nina Fontaine
Angeline Navarro
Martha Dockery
Demarcus Fontaine
London Dockery
Brynn Pettit
8 5 2 7 3 10 1 9 4 6
4 2 9 5 1 3 7 8 10 6
6 9 10 8 4 2 5 1 3 7
3 5 4 7 9 8 10 2 1 6
6 2 3 1 7 10 9 4 8 5
6 4 8 2 10 7 1 5 3 9
7 3 8 6 9 5 1 10 4 2
7 1 3 10 9 2 5 4 8 6
4 1 3 5 9 6 8 2 10 7
6 3 10 4 7 5 1 9 2 8
10 8 7 2 6 9 3 1 5 4
3 9 4 2 8 6 1 7 5 10
6 9 2 1 3 4 5 7 10 8
9 3 10 7 6 1 2 5 4 8
5 1 2 8 10 4 3 7 9 6
1 10 4 5 3 7 8 6 2 9
8 5 3 7 2 10 6 1 9 4
8 6 1 3 7 5 4 2 9 10
1 5 3 2 10 9 8 4 6 7
8 2 6 10 1 7 3 4 9 5
1 7 2 3 9 6 5 10 4 8
7 3 5 1 9 10 6 4 8 2
8 6 4 5 1 9 7 2 3 10
4 3 7 1 8 5 2 9 10 6
4 3 10 6 5 9 2 8 7 1
3 9 10 6 7 8 5 4 2 1
6 7 10 4 1 2 3 5 8 9
8 2 6 3 7 9 5 1 10 4
3 8 2 4 7 10 6 1 9 5
8 1 4 6 7 9 3 10 2 5
8 2 9 5 7 3 4 1 10 6
3 8 10 4 2 1 9 7 6 5
9 7 6 3 5 8 10 1 4 2
5 4 10 7 6 1 2 3 8 9

11
Rory Ruby
Angeline Fontaine
Demarcus Dockery
Nyla Barlow
Carson Vaught
Rashad Glynn
Rashad Arevalo
Rory Dockery
Dario Glynn
Dario Womack
Roy Arevalo
7 9 3 2 10 1 11 6 5 8 4
3 10 5 11 4 6 1 2 8 9 7
1 6 4 7 2 3 5 8 10 9 11
9 2 3 6 8 1 4 7 11 10 5
6 8 3 11 7 2 10 1 9 4 5
2 4 6 8 9 1 7 3 5 10 11
2 1 8 10 5 9 6 7 4 11 3
7 2 1 4 5 10 9 6 11 3 8
7 3 10 2 1 9 8 5 6 4 11
4 2 1 6 7 3 8 10 11 5 9
9 6 2 7 10 5 3 8 1 11 4
9 2 1 6 8 5 3 7 11 4 10
10 11 7 4 2 9 3 8 6 5 1
3 4 7 1 10 5 6 11 2 9 8
4 6 8 1 7 2 9 11 5 3 10
5 2 4 11 6 1 8 3 9 10 7
3 4 1 7 2 5 6 10 11 9 8
6 2 4 11 7 10 8 5 3 9 1
7 9 6 8 3 2 1 4 5 10 11
4 2 11 5 3 6 7 1 10 9 8
7 5 6 3 9 8 4 1 2 11 10
1 9 8 5 10 4 11 7 3 6 2
10 4 11 3 6 1 5 7 2 9 8
4 3 7 11 10 5 1 8 6 2 9
6 9 4 3 11 1 7 8 2 5 10
10 2 4 5 1 9 6 3 8 7 11
2 8 10 9 7 4 3 6 1 5 11
4 1 11 3 8 9 5 7 10 6 2
8 2 6 7 1 3 5 4 11 10 9
10 6 2 11 9 8 4 7 1 5 3
3 9 10 5 7 8 1 2 11 4 6
6 3 10 9 8 4 7 5 2 1 11
7 5 11 1 3 4 6 9 2 8 10
10 8 2 3 4 5 9 7 11 6 1
3 4 5 9 11 1 6 10 7 2 8
8 10 11 2 6 3 9 4 7 1 5
3 2 11 9 7 5 8 4 6 1 10
11 7 10 9 1 2 8 6 4 3 5
7 4 6 9 1 8 3 5 11 2 10
8 11 4 9 6 2 3 5 10 1 7
4 1 9 7 10 11 5 2 8 6 3
11 10 2 3 9 1 4 5 6 7 8
9 1 6 5 7 3 2 8 4 11 10
5 9 7 8 3 4 11 6 10 2 1

14
Nina McDough
Roy Glynn
Trevor Vaught
Kelli Fontaine
London Aragon
Donte Yu
Ester Sterling
Nyla Barlow
Dario Barlow
Rashad Sterling
London Glynn
Martha Lee
Kelli Venegas
Nadia Arevalo
1 8 6 12 11 14 10 2 7 3 9 4 13 5
4 11 12 13 3 10 9 7 1 14 6 2 5 8

20
Carson Barlow
Angeline Aragon
Brynn Vaught
Nina Fontaine
Eleanor Lee
Donte McDough
Demarcus Vaught
Martha Vaught
Aileen Ruby
Brynn Womack
Ester Pimentel
London Greiner
Rashad Fontaine
Demarcus Ruby
Martha Dockery
Shyann Arevalo
Rory Fontaine
Dario Dockery
Nadia Pettit
Audra Arevalo
5 2 20 11 17 9 19 4 13 8 7 6 18 10 16 15 3 14 1 12
2 8 9 16 10 5 6 11 20 14 17 19 4 3 13 12 15 7 1 18
19 12 7 11 14 17 6 20 1 9 8 13 16 10 4 5 15 2 18 3
9 6 2 1 3 7 16 15 12 18 19 8 17 11 14 10 5 20 13 4
2 19 11 13 15 20 9 6 1 14 8 5 18 12 17 3 7 4 10 16
13 7 14 18 17 10 2 4 19 15 16 12 6 3 5 11 1 9 20 8
9 5 1 2 15 19 10 3 16 17 8 7 14 18 6 12 4 20 13 11
1 18 17 13 3 20 15 8 6 5 16 2 11 19 14 12 9 7 10 4
13 2 6 11 10 16 5 12 17 15 19 4 7 14 8 20 9 1 18 3
9 12 15 7 5 16 2 14 4 13 3 11 18 17 6 19 20 1 8 10
20 11 6 10 4 17 2 9 7 18 14 5 13 16 15 8 3 1 19 12
6 18 15 11 14 17 12 16 9 4 5 8 19 7 2 13 10 20 1 3
19 12 4 14 2 7 9 10 17 6 16 1 18 15 20 8 5 13 11 3
5 14 7 8 18 13 2 20 9 16 4 1 11 10 3 19 15 6 17 12
9 19 15 5 20 7 1 10 6 12 2 11 8 3 16 4 14 17 13 18
17 15 3 18 20 16 4 1 12 13 19 5 9 10 14 7 2 6 8 11
3 9 13 15 1 5 7 4 2 10 6 18 20 19 14 16 8 17 11 12
1 4 7 12 13 3 17 5 11 6 2 18 9 10 15 16 8 20 19 14
10 18 2 17 13 19 12 3 8 6 7 5 20 1 4 16 11 14 9 15
19 3 11 10 18 15 8 4 9 14 17 2 13 12 6 16 5 1 20 7
4 3 6 13 20 5 17 18 2 15 14 11 9 12 8 10 19 7 16 1
20 3 7 15 9 4 10 19 11 16 14 12 13 5 18 8 2 1 17 6
3 7 4 17 16 11 2 6 8 12 13 18 10 20 15 9 19 14 1 5
8 16 14 2 7 13 18 10 9 1 4 11 6 5 3 19 12 20 17 15

14
Kelli Venegas
Demarcus Varelo
Roy Navarro
Ania McDough
Ania Lee
Eleanor Barlow
Donte Sterling
Nina Yu
Marian Ruby
Ester Lee
Donte McDough
Marian Arevalo
Nina Fontaine
Rashad Ruby
13 1 4 5 3 11 14 9 7 2 10 8 6 12
8 11 9 1 3 13 2 6 4 10 5 12 7 14
3 11 2 10 4 5 7 14 13 12 6 1 8 9
2 13 6 7 3 12 14 11 5 1 4 9 8 10
7 1 6 4 5 8 9 12 13 11 14 2 3 10
7 14 2 4 8 13 6 5 9 11 1 12 3 10
9 8 3 4 10 13 5 7 14 6 12 11 1 2
5 12 4 13 14 8 9 6 3 2 7 1 10 11
3 8 1 6 10 5 2 4 13 9 7 11 14 12
1 10 9 3 14 11 8 4 7 5 12 2 6 13
5 6 13 10 2 1 4 3 11 12 14 9 7 8
5 4 7 11 9 14 6 12 10 3 13 2 1 8
6 5 7 9 13 14 12 8 11 2 3 4 10 1
9 14 2 7 10 12 13 1 3 6 4 11 8 5
11 4 12 10 9 8 7 5 6 13 2 3 1 14
1 5 3 13 2 7 6 4 14 8 10 12 9 11
14 2 3 6 10 5 9 8 4 11 7 13 1 12
11 5 8 7 14 2 9 3 12 1 13 4 10 6
2 7 9 11 12 1 10 4 14 13 6 3 5 8
9 7 11 14 10 8 2 4 1 3 5 12 13 6
3 2 12 9 10 4 7 11 14 6 8 5 1 13
14 5 2 4 3 7 11 13 12 9 1 8 10 6
1 5 11 9 2 6 12 13 4 8 10 14 7 3
14 13 12 1 6 2 8 3 11 9 5 10 4 7
4 8 3 12 9 14 5 10 1 13 6 2 7 11
13 2 6 9 8 5 4 10 7 14 1 11 12 3
9 2 6 5 4 1 3 8 13 10 11 7 14 12

19
Rory Pimentel
Cornelius Lee
Cornelius Fontaine
Shyann Fortune
Nina Womack
Carson Vaught
London Lee
Ania Fontaine
Ester Aragon
London Glynn
Nina Pettit
Aileen Arevalo
Eleanor Van
Nadia Barlow
Rory Varelo
Brynn McDough
Kelli Glynn
Nina Glynn
Donte Greiner
5 2 14 18 9 7 10 8 11 3 15 16 19 6 4 12 13 1 17
11 5 9 19 10 3 16 12 14 4 2 17 8 15 1 18 7 6 13
13 2 11 5 14 1 4 12 3 17 19 9 8 7 16 15 18 6 10
17 8 18 4 7 10 14 3 5 1 2 11 12 16 9 6 13 19 15
10 3 9 8 13 6 2 11 14 15 16 19 5 18 17 1 7 12 4
2 19 18 14 5 16 1 13 15 17 9 7 4 11 12 6 10 8 3
16 3 4 6 10 2 18 7 8 1 15 5 11 13 9 17 12 19 14
14 18 7 10 9 5 6 15 2 17 1 11 13 4 16 8 19 3 12
18 1 11 6 7 4 3 12 19 17 10 13 2 8 14 15 9 5 16
18 19 12 9 7 11 6 3 10 4 17 15 16 13 1 2 5 14 8
7 4 1 9 12 13 2 15 11 19 5 17 6 14 3 10 8 18 16
16 6 3 7 5 15 8 14 18 1 10 2 11 12 4 19 9 13 17
14 17 2 12 9 4 11 13 5 8 19 6 3 15 1 10 7 16 18
9 19 15 16 13 11 3 2 6 4 12 1 7 8 14 10 5 18 17
14 11 15 2 3 17 1 12 18 13 7 9 6 5 16 4 8 19 10
19 11 2 4 12 10 16 5 1 6 13 7 17 15 14 8 18 9 3

13
Demarcus Ruby
Kelli Vaught
Nina Van
Nyla Arevalo
Aileen Venegas
Nina Barlow
Roy Venegas
Dario Pimentel
Aileen Pimentel
Nyla Venegas
London Glynn
Ania Sterling
Dario Barlow
2 11 6 9 5 12 3 4 1 8 13 7 10
6 8 1 2 4 5 12 10 13 7 9 3 11
9 4 7 1 2 10 11 5 12 13 8 6 3
3 8 12 1 2 10 9 5 11 13 7 4 6
1 9 2 12 4 13 7 8 3 11 10 6 5
13 6 2 11 3 4 10 7 1 5 8 12 9
13 5 1 6 9 2 10 8 12 4 3 7 11
13 9 1 10 12 8 5 11 3 7 4 6 2
9 10 4 13 8 7 11 1 3 5 12 6 2
5 12 7 10 13 2 4 6 1 3 11 9 8
5 2 6 9 8 11 12 4 3 10 7 1 13
5 13 2 7 6 1 12 4 11 8 9 3 10
6 13 2 1 3 5 12 9 8 10 11 7 4
2 8 3 7 1 13 9 6 4 12 10 5 11
3 7 2 11 1 5 12 10 8 6 9 13 4
3 6 8 5 11 13 9 10 2 12 4 7 1
9 10 3 8 6 11 12 4 1 13 7 5 2
13 9 11 6 5 7 10 2 1 12 8 3 4
8 7 13 6 10 11 4 2 1 12 9 3 5
11 13 1 5 3 6 2 7 4 10 8 12 9
10 3 11 8 9 1 6 4 2 5 12 7 13
3 4 13 1 8 11 7 9 6 5 10 12 2
3 9 5 4 13 2 1 7 11 10 6 12 8

9
Martha Ruby
Dario Sterling
Nina Ruby
Brynn Fortune
Angeline Barlow
Kelli Fontaine
Nina Greiner
Cornelius Sterling
Demarcus Greiner
2 3 7 6 8 5 1 4 9
5 9 1 7 2 8 4 6 3
9 4 6 1 3 2 8 7 5
7 5 1 4 8 6 2 3 9
3 4 5 6 1 9 8 7 2
5 6 1 7 9 8 3 4 2
7 8 4 9 6 1 2 5 3
7 5 2 8 1 3 6 4 9
3 7 9 8 5 2 6 1 4
5 1 2 8 4 7 9 3 6
6 1 3 8 7 5 2 4 9
5 3 6 2 4 8 1 7 9
4 5 8 7 6 1 3 9 2
2 1 8 9 4 5 7 6 3
9 4 8 2 3 1 6 5 7
2 3 5 6 9 4 7 8 1
5 8 3 7 2 1 9 4 6
3 2 8 1 7 5 6 4 9
7 9 6 4 2 3 1 8 5
2 8 3 7 5 1 4 9 6
7 1 6 2 9 3 8 4 5
1 6 3 4 7 2 8 5 9
5 9 1 8 7 4 6 2 3
2 1 8 4 5 9 7 3 6
9 6 3 1 7 4 5 8 2
4 1 5 2 8 3 6 7 9

7
Trevor Vaught
Brynn Ruby
Angeline Varelo
Martha Arevalo
Shyann Navarro
Cornelius Yu
Rory Yu
3 4 1 5 2 7 6
4 1 2 3 5 6 7
7 6 2 1 3 5 4
7 6 2 4 5 1 3
1 6 7 2 3 4 5
2 4 1 6 7 3 5
4 2 1 6 7 3 5
7 3 6 4 1 5 2
4 7 2 1 5 3 6
4 6 5 1 2 3 7
2 5 4 3 1 6 7
3 1 2 6 5 4 7
2 4 7 5 6 3 1
5 3 7 6 4 1 2
4 2 7 6 3 5 1
1 3 4 7 2 6 5
4 7 6 1 3 5 2
1 5 3 7 2 4 6
2 3 6 7 1 4 5
6 7 5 1 3 2 4
3 5 4 6 2 7 1
7 5 3 4 6 1 2
2 7 5 1 3 4 6
6 3 5 4 2 7 1
5 2 1 6 3 7 4
3 7 6 4 5 1 2
1 4 5 6 3 7 2
6 3 1 2 5 7 4
4 7 6 2 1 3 5
2 1 4 6 5 7 3
5 3 1 2 6 4 7
7 3 6 4 1 2 5
1 4 6 7 5 2 3
5 3 2 4 1 6 7
6 2 3 4 1 5 7
3 2 6 5 4 1 7
7 6 2 1 3 5 4
5 7 2 3 4 6 1
1 7 3 4 5 6 2
2 4 3 6 5 1 7
3 7 5 2 1 4 6
3 7 2 1 4 5 6
2 3 7 6 5 1 4

11
Shyann Van
Ania Fontaine
Nina Pimentel
Dario Lee
Marian Fortune
Nina Glynn
Demarcus Greiner
Dario Van
Audra Glynn
Rashad Sterling
Eleanor Vaught
7 1 9 2 4 10 11 8 3 6 5
1 6 3 5 4 8 9 10 2 7 11
6 3 8 5 11 1 2 9 7 4 10
10 7 11 6 8 2 5 4 9 3 1
1 10 8 7 11 9 3 4 6 2 5
9 1 3 6 7 10 4 11 5 8 2
3 5 2 1 6 4 11 8 10 9 7
6 5 3 10 11 8 9 7 4 2 1
9 4 6 8 1 10 2 3 11 7 5
9 5 3 4 6 10 7 1 8 11 2
7 10 5 3 2 11 6 8 9 1 4
6 9 8 1 2 4 5 10 7 3 11
5 3 4 2 1 8 11 6 10 7 9
8 4 6 11 2 7 10 9 1 5 3
